[gd_resource type="AtlasTexture" load_steps=2 format=3 uid="uid://bpfo3wtr8a78s"]

[ext_resource type="Texture2D" uid="uid://bv7pxjxnaw0dk" path="res://Assets/pipe.png" id="1_yqw4n"]

[resource]
atlas = ExtResource("1_yqw4n")
region = Rect2(704, 1688, 256, 616)
