[gd_scene load_steps=20 format=3 uid="uid://c12307ohvf0oq"]

[ext_resource type="Script" path="res://level1.gd" id="1_rtcdu"]
[ext_resource type="Script" path="res://greybox_playground_area.gd" id="2_rxu3l"]
[ext_resource type="TileSet" uid="uid://ctuapt3ofljxb" path="res://assets/terrain/level1_back.tres" id="3_sfoiu"]
[ext_resource type="PackedScene" uid="uid://kawpnkkrqqm5" path="res://assets/objects/booster_jump.tscn" id="4_vq3ud"]
[ext_resource type="PackedScene" uid="uid://cbveix80nxybw" path="res://assets/objects/key.tscn" id="5_ms8sv"]
[ext_resource type="PackedScene" uid="uid://baurfd4a0tmgv" path="res://assets/objects/door.tscn" id="6_3ss6s"]
[ext_resource type="PackedScene" uid="uid://p53du3tkbk5y" path="res://assets/characters/player_character.tscn" id="7_i103g"]
[ext_resource type="PackedScene" uid="uid://dsm3sfl3x6nou" path="res://assets/back/background.tscn" id="8_dnsfp"]
[ext_resource type="PackedScene" uid="uid://bn6akmo1ntbra" path="res://assets/UI/pause/pause.tscn" id="9_cqm4d"]
[ext_resource type="PackedScene" uid="uid://bpllfw6ewwdpl" path="res://assets/characters/enemies/MKT/mkt_character.tscn" id="10_13wt7"]
[ext_resource type="PackedScene" uid="uid://v7f8ijkq7318" path="res://assets/characters/enemies/MK150/mk150_character.tscn" id="10_255r6"]
[ext_resource type="PackedScene" uid="uid://s6ovgffeg50b" path="res://assets/UI/hud.tscn" id="10_667v8"]
[ext_resource type="PackedScene" uid="uid://dxbbca8mifpda" path="res://assets/objects/tube.tscn" id="11_3sw77"]
[ext_resource type="PackedScene" uid="uid://b5wb6i3e5tjqi" path="res://assets/characters/enemies/MKU/mku_character.tscn" id="12_3j1l5"]
[ext_resource type="Texture2D" uid="uid://cpsrfo7hdu7oj" path="res://assets/terrain/tileset.png" id="12_du62l"]

[sub_resource type="RectangleShape2D" id="RectangleShape2D_k3xn8"]
size = Vector2(2196, 1260)

[sub_resource type="TileSetAtlasSource" id="TileSetAtlasSource_4uw3r"]
texture = ExtResource("12_du62l")
texture_region_size = Vector2i(48, 48)
use_texture_padding = false
0:0/0 = 0
0:0/0/physics_layer_0/linear_velocity = Vector2(0, 0)
0:0/0/physics_layer_0/angular_velocity = 0.0
0:0/0/physics_layer_0/polygon_0/points = PackedVector2Array(-24, -24, 24, -24, 24, 24, -24, 24)
1:0/0 = 0
1:0/0/physics_layer_0/linear_velocity = Vector2(0, 0)
1:0/0/physics_layer_0/angular_velocity = 0.0
1:0/0/physics_layer_0/polygon_0/points = PackedVector2Array(-24, -24, 24, -24, 24, 24, -24, 24)
2:0/0 = 0
2:0/0/physics_layer_0/linear_velocity = Vector2(0, 0)
2:0/0/physics_layer_0/angular_velocity = 0.0
2:0/0/physics_layer_0/polygon_0/points = PackedVector2Array(-24, -24, 24, -24, 24, 24, -24, 24)
0:1/0 = 0
0:1/0/physics_layer_0/linear_velocity = Vector2(0, 0)
0:1/0/physics_layer_0/angular_velocity = 0.0
0:1/0/physics_layer_0/polygon_0/points = PackedVector2Array(-24, -24, 24, -24, 24, 24, -24, 24)
0:2/0 = 0
0:2/0/physics_layer_0/linear_velocity = Vector2(0, 0)
0:2/0/physics_layer_0/angular_velocity = 0.0
0:2/0/physics_layer_0/polygon_0/points = PackedVector2Array(-24, -24, 24, -24, 24, 24, -24, 24)
1:1/0 = 0
1:1/0/physics_layer_0/linear_velocity = Vector2(0, 0)
1:1/0/physics_layer_0/angular_velocity = 0.0
1:1/0/physics_layer_0/polygon_0/points = PackedVector2Array(-24, -24, 24, -24, 24, 24, -24, 24)
1:2/0 = 0
1:2/0/physics_layer_0/linear_velocity = Vector2(0, 0)
1:2/0/physics_layer_0/angular_velocity = 0.0
1:2/0/physics_layer_0/polygon_0/points = PackedVector2Array(-24, -24, 24, -24, 24, 24, -24, 24)
2:1/0 = 0
2:1/0/physics_layer_0/linear_velocity = Vector2(0, 0)
2:1/0/physics_layer_0/angular_velocity = 0.0
2:1/0/physics_layer_0/polygon_0/points = PackedVector2Array(-24, -24, 24, -24, 24, 24, -24, 24)
2:2/0 = 0
2:2/0/physics_layer_0/linear_velocity = Vector2(0, 0)
2:2/0/physics_layer_0/angular_velocity = 0.0
2:2/0/physics_layer_0/polygon_0/points = PackedVector2Array(-24, -24, 24, -24, 24, 24, -24, 24)
3:0/0 = 0
3:0/0/physics_layer_0/linear_velocity = Vector2(0, 0)
3:0/0/physics_layer_0/angular_velocity = 0.0
3:0/0/physics_layer_0/polygon_0/points = PackedVector2Array(-24, -24, 24, -24, 24, 24, -24, 24)
4:0/0 = 0
4:0/0/physics_layer_0/linear_velocity = Vector2(0, 0)
4:0/0/physics_layer_0/angular_velocity = 0.0
4:0/0/physics_layer_0/polygon_0/points = PackedVector2Array(-24, -24, 24, -24, 24, 24, -24, 24)
5:0/0 = 0
5:0/0/physics_layer_0/linear_velocity = Vector2(0, 0)
5:0/0/physics_layer_0/angular_velocity = 0.0
5:0/0/physics_layer_0/polygon_0/points = PackedVector2Array(-24, -24, 24, -24, 24, 24, -24, 24)
0:3/0 = 0
0:3/0/physics_layer_0/linear_velocity = Vector2(0, 0)
0:3/0/physics_layer_0/angular_velocity = 0.0
0:3/0/physics_layer_0/polygon_0/points = PackedVector2Array(-24, -24, 24, -24, 24, 24, -24, 24)

[sub_resource type="TileSet" id="TileSet_sq2av"]
tile_size = Vector2i(48, 48)
physics_layer_0/collision_layer = 1
physics_layer_0/collision_mask = 0
sources/1 = SubResource("TileSetAtlasSource_4uw3r")

[sub_resource type="Environment" id="Environment_lu1vb"]

[node name="level1" type="Node2D"]
script = ExtResource("1_rtcdu")

[node name="playground_area" type="Area2D" parent="."]
collision_layer = 0
collision_mask = 6
script = ExtResource("2_rxu3l")

[node name="playground_area_collision" type="CollisionShape2D" parent="playground_area"]
position = Vector2(702, -342)
shape = SubResource("RectangleShape2D_k3xn8")

[node name="TileMapBack" type="TileMap" parent="."]
scale = Vector2(0.75, 0.75)
tile_set = ExtResource("3_sfoiu")
format = 2
layer_0/tile_data = PackedInt32Array(-1703947, 65537, 1, -1638411, 65537, 1, -1572875, 65537, 1, -1507339, 65537, 1, -1441803, 65537, 1, -1376267, 65537, 1, -1310731, 65537, 1, -1245195, 65537, 1, -1179659, 65537, 1, -1114123, 65537, 1, -1048587, 65537, 1, -983051, 65537, 1, -917515, 65537, 1, -851979, 65537, 1, -786443, 65537, 1, -720907, 65537, 1, -655371, 65537, 1, -589835, 65537, 1, -524299, 65537, 1, -458763, 65537, 1, -393227, 65537, 1, -327691, 65537, 1, -262155, 65537, 1, -196619, 65537, 1, -131083, 65537, 1, -65547, 65537, 1, -11, 65537, 1, 65525, 65537, 1, 131061, 65537, 1, 196597, 65537, 1, 262133, 65537, 1, 327669, 65537, 1, 393205, 65537, 1, 458741, 65537, 1, 524277, 65537, 1, -1703946, 65537, 1, -1638410, 65537, 1, -1572874, 65537, 1, -1507338, 65537, 1, -1441802, 65537, 1, -1376266, 65537, 1, -1310730, 65537, 1, -1245194, 65537, 1, -1179658, 65537, 1, -1114122, 65537, 1, -1048586, 65537, 1, -983050, 65537, 1, -917514, 65537, 1, -851978, 65537, 1, -786442, 65537, 1, -720906, 65537, 1, -655370, 65537, 1, -589834, 65537, 1, -524298, 65537, 1, -458762, 65537, 1, -393226, 65537, 1, -327690, 65537, 1, -262154, 65537, 1, -196618, 65537, 1, -131082, 65537, 1, -65546, 65537, 1, -10, 65537, 1, 65526, 65537, 1, 131062, 65537, 1, 196598, 65537, 1, 262134, 65537, 1, 327670, 65537, 1, 393206, 1, 3, 458742, 1, 3, 524278, 65537, 1, -1703945, 65537, 1, -1638409, 65537, 1, -1572873, 65537, 1, -1507337, 65537, 1, -1441801, 65537, 1, -1376265, 65537, 1, -1310729, 65537, 1, -1245193, 65537, 1, -1179657, 65537, 1, -1114121, 65537, 1, -1048585, 65537, 1, -983049, 65537, 1, -917513, 65537, 1, -851977, 65537, 1, -786441, 65537, 1, -720905, 65537, 1, -655369, 65537, 1, -589833, 65537, 1, -524297, 65537, 1, -458761, 65537, 1, -393225, 65537, 1, -327689, 65537, 1, -262153, 65537, 1, -196617, 65537, 1, -131081, 65537, 1, -65545, 65537, 1, -9, 65537, 1, 65527, 65537, 1, 131063, 65537, 1, 196599, 65537, 1, 262135, 65537, 1, 327671, 65537, 1, 393207, 65537, 1, 458743, 1, 3, 524279, 65537, 1, -1703944, 65537, 1, -1638408, 65537, 1, -1572872, 65537, 1, -1507336, 65537, 1, -1441800, 65537, 1, -1179656, 65537, 1, -1114120, 65537, 1, -1048584, 65537, 1, -983048, 65537, 1, -917512, 65537, 1, -851976, 65537, 1, -786440, 65537, 1, -720904, 65537, 1, -655368, 65537, 1, -589832, 65537, 1, -524296, 65537, 1, -458760, 65537, 1, -393224, 65537, 1, -327688, 65537, 1, -262152, 65537, 1, -196616, 65537, 1, -131080, 65537, 1, -65544, 65537, 1, -8, 65537, 1, 65528, 65537, 1, 131064, 65537, 1, 196600, 65537, 1, 262136, 65537, 1, 327672, 65537, 1, 393208, 65537, 1, 458744, 65537, 1, 524280, 65537, 1, -1703943, 65537, 1, -1638407, 65537, 1, -1572871, 65537, 1, -1507335, 65537, 1, -1441799, 65537, 1, -1376263, 65537, 1, -1310727, 65537, 1, -1245191, 65537, 1, -1179655, 65537, 1, -1114119, 65537, 1, -1048583, 65537, 1, -983047, 1, 3, -917511, 1, 3, -851975, 1, 3, -786439, 1, 3, -720903, 65537, 1, -655367, 65537, 1, -589831, 65537, 1, -524295, 65537, 1, -458759, 65537, 1, -393223, 1, 3, -327687, 65537, 1, -262151, 65537, 1, -196615, 65537, 1, -131079, 65537, 1, -65543, 65537, 1, -7, 65537, 1, 65529, 65537, 1, 131065, 65537, 1, 196601, 65537, 1, 262137, 65537, 1, 327673, 65537, 1, 393209, 65537, 1, 458745, 65537, 1, 524281, 65537, 1, -1703942, 65537, 1, -1638406, 65537, 1, -1572870, 65537, 1, -1507334, 65537, 1, -1441798, 1, 3, -1376262, 1, 3, -1310726, 1, 3, -1179654, 65537, 1, -1114118, 65537, 1, -1048582, 65537, 1, -983046, 1, 3, -917510, 1, 3, -851974, 1, 3, -786438, 1, 3, -720902, 1, 3, -655366, 1, 3, -589830, 1, 3, -524294, 65537, 1, -458758, 65537, 1, -393222, 1, 3, -327686, 65537, 1, -262150, 65537, 1, -196614, 65537, 1, -131078, 65537, 1, -65542, 65537, 1, -6, 65537, 1, 65530, 65537, 1, 131066, 65537, 1, 196602, 65537, 1, 262138, 65537, 1, 327674, 65537, 1, 393210, 65537, 1, 458746, 65537, 1, 524282, 65537, 1, -1703941, 65537, 1, -1638405, 65537, 1, -1572869, 65537, 1, -1507333, 65537, 1, -1441797, 1, 3, -1376261, 1, 3, -1310725, 1, 3, -1179653, 65537, 1, -1114117, 65537, 1, -1048581, 65537, 1, -983045, 65537, 1, -917509, 65537, 1, -851973, 65537, 1, -786437, 1, 3, -720901, 1, 3, -655365, 1, 3, -589829, 1, 3, -524293, 1, 3, -458757, 65537, 1, -393221, 1, 3, -327685, 65537, 1, -262149, 65537, 1, -196613, 65537, 1, -131077, 65537, 1, -65541, 1, 3, -5, 1, 3, 65531, 65537, 1, 131067, 65537, 1, 196603, 65537, 1, 262139, 65537, 1, 327675, 65537, 1, 393211, 65537, 1, 458747, 65537, 1, 524283, 65537, 1, -1703940, 65537, 1, -1638404, 65537, 1, -1572868, 65537, 1, -1507332, 65537, 1, -1441796, 1, 3, -1376260, 1, 3, -1310724, 1, 3, -1179652, 65537, 1, -1114116, 65537, 1, -1048580, 65537, 1, -983044, 65537, 1, -917508, 65537, 1, -851972, 65537, 1, -786436, 65537, 1, -720900, 1, 3, -655364, 1, 3, -589828, 1, 3, -524292, 1, 3, -458756, 1, 3, -393220, 1, 3, -327684, 65537, 1, -262148, 65537, 1, -196612, 65537, 1, -131076, 65537, 1, -65540, 1, 3, -4, 1, 3, 65532, 65537, 1, 131068, 65537, 1, 196604, 65537, 1, 262140, 65537, 1, 327676, 65537, 1, 393212, 65537, 1, 458748, 65537, 1, 524284, 65537, 1, -1703939, 65537, 1, -1638403, 65537, 1, -1572867, 65537, 1, -1507331, 65537, 1, -1441795, 1, 3, -1376259, 1, 3, -1310723, 1, 3, -1179651, 65537, 1, -1114115, 65537, 1, -1048579, 65537, 1, -983043, 65537, 1, -917507, 65537, 1, -851971, 65537, 1, -786435, 65537, 1, -720899, 65537, 1, -655363, 1, 3, -589827, 1, 3, -524291, 1, 3, -458755, 1, 3, -393219, 1, 3, -327683, 65537, 1, -262147, 65537, 1, -196611, 65537, 1, -131075, 65537, 1, -65539, 1, 3, -3, 1, 3, 65533, 65537, 1, 131069, 65537, 1, 196605, 65537, 1, 262141, 65537, 1, 327677, 65537, 1, 393213, 65537, 1, 458749, 65537, 1, 524285, 65537, 1, -1703938, 65537, 1, -1638402, 65537, 1, -1572866, 65537, 1, -1507330, 65537, 1, -1441794, 1, 3, -1376258, 1, 3, -1310722, 1, 3, -1179650, 65537, 1, -1114114, 65537, 1, -1048578, 65537, 1, -983042, 65537, 1, -917506, 65537, 1, -851970, 65537, 1, -786434, 65537, 1, -720898, 65537, 1, -655362, 1, 3, -589826, 1, 3, -524290, 1, 3, -458754, 1, 3, -393218, 1, 3, -327682, 65537, 1, -262146, 65537, 1, -196610, 65537, 1, -131074, 65537, 1, -65538, 1, 3, -2, 1, 3, 65534, 65537, 1, 131070, 65537, 1, 196606, 65537, 1, 262142, 65537, 1, 327678, 65537, 1, 393214, 65537, 1, 458750, 65537, 1, 524286, 65537, 1, -1703937, 65537, 1, -1638401, 65537, 1, -1572865, 65537, 1, -1507329, 65537, 1, -1441793, 1, 3, -1376257, 1, 3, -1310721, 1, 3, -1179649, 65537, 1, -1114113, 65537, 1, -1048577, 65537, 1, -983041, 65537, 1, -917505, 65537, 1, -851969, 65537, 1, -786433, 65537, 1, -720897, 65537, 1, -655361, 65537, 1, -589825, 65537, 1, -524289, 65537, 1, -458753, 65537, 1, -393217, 65537, 1, -327681, 65537, 1, -262145, 65537, 1, -196609, 65537, 1, -131073, 65537, 1, -65537, 65537, 1, -1, 65537, 1, 65535, 65537, 1, 131071, 65537, 1, 196607, 65537, 1, 262143, 65537, 1, 327679, 65537, 1, 393215, 65537, 1, 458751, 65537, 1, 524287, 65537, 1, -1769472, 65537, 1, -1703936, 65537, 1, -1638400, 65537, 1, -1572864, 65537, 1, -1507328, 1, 3, -1441792, 1, 3, -1376256, 1, 3, -1245184, 65537, 1, -1179648, 65537, 1, -1114112, 1, 3, -1048576, 1, 3, -983040, 65537, 1, -917504, 65537, 1, -851968, 65537, 1, -786432, 65537, 1, -720896, 65537, 1, -655360, 65537, 1, -589824, 65537, 1, -524288, 65537, 1, -458752, 65537, 1, -393216, 65537, 1, -327680, 65537, 1, -262144, 65537, 1, -196608, 65537, 1, -131072, 65537, 1, -65536, 65537, 1, 0, 65537, 1, 65536, 65537, 1, 131072, 65537, 1, 196608, 65537, 1, 262144, 65537, 1, 327680, 65537, 1, 393216, 65537, 1, 458752, 65537, 1, -1769471, 65537, 1, -1703935, 65537, 1, -1638399, 65537, 1, -1572863, 65537, 1, -1507327, 65537, 1, -1441791, 65537, 1, -1376255, 65537, 1, -1310719, 65537, 1, -1245183, 65537, 1, -1179647, 65537, 1, -1114111, 1, 3, -1048575, 1, 3, -983039, 65537, 1, -917503, 65537, 1, -851967, 65537, 1, -786431, 65537, 1, -720895, 1, 3, -655359, 1, 3, -589823, 1, 3, -524287, 1, 3, -458751, 1, 3, -393215, 65537, 1, -327679, 65537, 1, -262143, 65537, 1, -196607, 65537, 1, -131071, 65537, 1, -65535, 65537, 1, 1, 65537, 1, 65537, 65537, 1, 131073, 65537, 1, 196609, 65537, 1, 262145, 65537, 1, 327681, 65537, 1, 393217, 65537, 1, 458753, 65537, 1, -1769470, 65537, 1, -1703934, 65537, 1, -1638398, 65537, 1, -1572862, 65537, 1, -1507326, 65537, 1, -1441790, 65537, 1, -1376254, 65537, 1, -1310718, 65537, 1, -1245182, 65537, 1, -1179646, 65537, 1, -1114110, 1, 3, -1048574, 1, 3, -983038, 65537, 1, -917502, 65537, 1, -851966, 65537, 1, -786430, 65537, 1, -720894, 1, 3, -655358, 1, 3, -589822, 1, 3, -524286, 1, 3, -458750, 1, 3, -393214, 1, 3, -327678, 65537, 1, -262142, 65537, 1, -196606, 65537, 1, -131070, 65537, 1, -65534, 65537, 1, 2, 65537, 1, 65538, 65537, 1, 131074, 65537, 1, 196610, 65537, 1, 262146, 65537, 1, 327682, 65537, 1, 393218, 65537, 1, 458754, 65537, 1, -1769469, 65537, 1, -1703933, 65537, 1, -1638397, 65537, 1, -1572861, 65537, 1, -1507325, 65537, 1, -1441789, 65537, 1, -1376253, 65537, 1, -1310717, 65537, 1, -1245181, 65537, 1, -1179645, 65537, 1, -1114109, 1, 3, -1048573, 1, 3, -983037, 65537, 1, -917501, 65537, 1, -851965, 65537, 1, -786429, 65537, 1, -720893, 1, 3, -655357, 1, 3, -589821, 1, 3, -524285, 1, 3, -458749, 1, 3, -393213, 1, 3, -327677, 1, 3, -262141, 65537, 1, -196605, 65537, 1, -131069, 65537, 1, -65533, 65537, 1, 3, 65537, 1, 65539, 65537, 1, 131075, 65537, 1, 196611, 65537, 1, 262147, 65537, 1, 327683, 65537, 1, 393219, 65537, 1, 458755, 65537, 1, -1769468, 65537, 1, -1703932, 65537, 1, -1638396, 65537, 1, -1572860, 65537, 1, -1507324, 65537, 1, -1441788, 65537, 1, -1376252, 65537, 1, -1310716, 65537, 1, -1245180, 65537, 1, -1179644, 65537, 1, -1114108, 65537, 1, -1048572, 65537, 1, -983036, 65537, 1, -917500, 65537, 1, -851964, 65537, 1, -786428, 65537, 1, -720892, 65537, 1, -655356, 65537, 1, -589820, 65537, 1, -524284, 65537, 1, -458748, 65537, 1, -393212, 65537, 1, -327676, 65537, 1, -262140, 65537, 1, -196604, 65537, 1, -131068, 65537, 1, -65532, 65537, 1, 4, 65537, 1, 65540, 65537, 1, 131076, 65537, 1, 196612, 65537, 1, 262148, 65537, 1, 327684, 65537, 1, 393220, 65537, 1, 458756, 65537, 1, -1769467, 65537, 1, -1703931, 65537, 1, -1638395, 1, 3, -1572859, 65537, 1, -1507323, 65537, 1, -1441787, 65537, 1, -1376251, 65537, 1, -1310715, 65537, 1, -1245179, 65537, 1, -1179643, 65537, 1, -1114107, 65537, 1, -1048571, 65537, 1, -983035, 65537, 1, -917499, 65537, 1, -851963, 65537, 1, -786427, 65537, 1, -720891, 65537, 1, -655355, 65537, 1, -589819, 65537, 1, -524283, 65537, 1, -458747, 65537, 1, -393211, 65537, 1, -327675, 65537, 1, -262139, 65537, 1, -196603, 65537, 1, -131067, 65537, 1, -65531, 65537, 1, 5, 1, 3, 65541, 1, 3, 131077, 1, 3, 196613, 65537, 1, 262149, 65537, 1, 327685, 65537, 1, 393221, 65537, 1, 458757, 65537, 1, -1769466, 65537, 1, -1703930, 65537, 1, -1638394, 1, 3, -1572858, 1, 3, -1507322, 65537, 1, -1441786, 65537, 1, -1376250, 65537, 1, -1310714, 65537, 1, -1245178, 65537, 1, -1179642, 65537, 1, -1114106, 65537, 1, -1048570, 65537, 1, -983034, 65537, 1, -917498, 65537, 1, -851962, 65537, 1, -786426, 65537, 1, -720890, 65537, 1, -655354, 65537, 1, -589818, 1, 3, -524282, 1, 3, -458746, 1, 3, -393210, 1, 3, -327674, 1, 3, -262138, 65537, 1, -196602, 65537, 1, -131066, 65537, 1, -65530, 65537, 1, 6, 1, 3, 65542, 1, 3, 131078, 1, 3, 196614, 65537, 1, 262150, 65537, 1, 327686, 65537, 1, 393222, 65537, 1, 458758, 65537, 1, -1769465, 65537, 1, -1703929, 65537, 1, -1638393, 1, 3, -1572857, 1, 3, -1507321, 1, 3, -1441785, 65537, 1, -1376249, 65537, 1, -1310713, 65537, 1, -1245177, 65537, 1, -1179641, 65537, 1, -1114105, 65537, 1, -1048569, 65537, 1, -983033, 65537, 1, -917497, 65537, 1, -851961, 65537, 1, -786425, 65537, 1, -720889, 65537, 1, -655353, 65537, 1, -589817, 1, 3, -524281, 1, 3, -458745, 1, 3, -393209, 1, 3, -327673, 1, 3, -262137, 65537, 1, -196601, 65537, 1, -131065, 65537, 1, -65529, 65537, 1, 7, 1, 3, 65543, 1, 3, 131079, 1, 3, 196615, 65537, 1, 262151, 65537, 1, 327687, 65537, 1, 393223, 65537, 1, 458759, 65537, 1, -1769464, 65537, 1, -1703928, 65537, 1, -1638392, 1, 3, -1572856, 1, 3, -1507320, 1, 3, -1441784, 1, 3, -1376248, 65537, 1, -1310712, 65537, 1, -1245176, 65537, 1, -1179640, 65537, 1, -1114104, 65537, 1, -1048568, 65537, 1, -983032, 65537, 1, -917496, 65537, 1, -851960, 65537, 1, -786424, 65537, 1, -720888, 65537, 1, -655352, 65537, 1, -589816, 1, 3, -524280, 1, 3, -458744, 1, 3, -393208, 1, 3, -327672, 1, 3, -262136, 65537, 1, -196600, 65537, 1, -131064, 65537, 1, -65528, 65537, 1, 8, 1, 3, 65544, 1, 3, 131080, 1, 3, 196616, 65537, 1, 262152, 65537, 1, 327688, 65537, 1, 393224, 65537, 1, 458760, 65537, 1, -1769463, 65537, 1, -1703927, 65537, 1, -1638391, 1, 3, -1572855, 1, 3, -1507319, 1, 3, -1441783, 1, 3, -1376247, 65537, 1, -1310711, 65537, 1, -1245175, 65537, 1, -1179639, 65537, 1, -1114103, 65537, 1, -1048567, 65537, 1, -983031, 65537, 1, -917495, 65537, 1, -851959, 65537, 1, -786423, 65537, 1, -720887, 65537, 1, -655351, 65537, 1, -589815, 65537, 1, -524279, 65537, 1, -458743, 65537, 1, -393207, 65537, 1, -327671, 65537, 1, -262135, 65537, 1, -196599, 65537, 1, -131063, 65537, 1, -65527, 65537, 1, 9, 1, 3, 65545, 1, 3, 131081, 1, 3, 196617, 65537, 1, 262153, 65537, 1, 327689, 65537, 1, 393225, 65537, 1, 458761, 65537, 1, -1769462, 65537, 1, -1703926, 65537, 1, -1638390, 1, 3, -1572854, 1, 3, -1507318, 1, 3, -1441782, 65537, 1, -1376246, 65537, 1, -1310710, 65537, 1, -1245174, 65537, 1, -1179638, 65537, 1, -1114102, 65537, 1, -1048566, 1, 3, -983030, 1, 3, -917494, 1, 3, -851958, 65537, 1, -786422, 65537, 1, -720886, 65537, 1, -655350, 65537, 1, -589814, 65537, 1, -524278, 65537, 1, -458742, 65537, 1, -393206, 65537, 1, -327670, 65537, 1, -262134, 65537, 1, -196598, 65537, 1, -131062, 65537, 1, -65526, 65537, 1, 10, 1, 3, 65546, 1, 3, 131082, 1, 3, 196618, 65537, 1, 262154, 65537, 1, 327690, 65537, 1, 393226, 65537, 1, 458762, 65537, 1, -1769461, 65537, 1, -1703925, 65537, 1, -1638389, 1, 3, -1572853, 1, 3, -1507317, 1, 3, -1441781, 65537, 1, -1376245, 65537, 1, -1310709, 65537, 1, -1245173, 65537, 1, -1179637, 65537, 1, -1114101, 65537, 1, -1048565, 1, 3, -983029, 1, 3, -917493, 1, 3, -851957, 65537, 1, -786421, 65537, 1, -720885, 65537, 1, -655349, 65537, 1, -589813, 1, 3, -524277, 1, 3, -458741, 1, 3, -393205, 1, 3, -327669, 1, 3, -262133, 65537, 1, -196597, 65537, 1, -131061, 65537, 1, -65525, 65537, 1, 11, 1, 3, 65547, 1, 3, 131083, 1, 3, 196619, 65537, 1, 262155, 65537, 1, 327691, 65537, 1, 393227, 65537, 1, 458763, 65537, 1, -1769460, 65537, 1, -1703924, 65537, 1, -1638388, 1, 3, -1572852, 1, 3, -1507316, 1, 3, -1441780, 1, 3, -1376244, 65537, 1, -1310708, 65537, 1, -1245172, 65537, 1, -1179636, 65537, 1, -1114100, 65537, 1, -1048564, 1, 3, -983028, 1, 3, -917492, 1, 3, -851956, 65537, 1, -786420, 65537, 1, -720884, 65537, 1, -655348, 65537, 1, -589812, 1, 3, -524276, 1, 3, -458740, 1, 3, -393204, 1, 3, -327668, 1, 3, -262132, 65537, 1, -196596, 65537, 1, -131060, 65537, 1, -65524, 65537, 1, 12, 1, 3, 65548, 1, 3, 131084, 1, 3, 196620, 65537, 1, 262156, 65537, 1, 327692, 65537, 1, 393228, 65537, 1, 458764, 65537, 1, -1769459, 65537, 1, -1703923, 65537, 1, -1638387, 1, 3, -1572851, 1, 3, -1507315, 1, 3, -1441779, 1, 3, -1376243, 65537, 1, -1310707, 65537, 1, -1245171, 65537, 1, -1179635, 65537, 1, -1114099, 65537, 1, -1048563, 1, 3, -983027, 1, 3, -917491, 1, 3, -851955, 65537, 1, -786419, 65537, 1, -720883, 65537, 1, -655347, 65537, 1, -589811, 1, 3, -524275, 1, 3, -458739, 1, 3, -393203, 1, 3, -327667, 1, 3, -262131, 65537, 1, -196595, 65537, 1, -131059, 65537, 1, -65523, 65537, 1, 13, 1, 3, 65549, 1, 3, 131085, 1, 3, 196621, 65537, 1, 262157, 65537, 1, 327693, 65537, 1, 393229, 65537, 1, 458765, 65537, 1, -1769458, 65537, 1, -1703922, 65537, 1, -1638386, 65537, 1, -1572850, 65537, 1, -1507314, 65537, 1, -1441778, 65537, 1, -1376242, 65537, 1, -1310706, 65537, 1, -1245170, 65537, 1, -1179634, 65537, 1, -1114098, 65537, 1, -1048562, 1, 3, -983026, 1, 3, -917490, 1, 3, -851954, 65537, 1, -786418, 65537, 1, -720882, 65537, 1, -655346, 65537, 1, -589810, 65537, 1, -524274, 65537, 1, -458738, 65537, 1, -393202, 65537, 1, -327666, 65537, 1, -262130, 65537, 1, -196594, 65537, 1, -131058, 65537, 1, -65522, 65537, 1, 14, 1, 3, 65550, 1, 3, 131086, 1, 3, 196622, 65537, 1, 262158, 65537, 1, 327694, 65537, 1, 393230, 65537, 1, 458766, 65537, 1, -1769457, 65537, 1, -1703921, 65537, 1, -1638385, 65537, 1, -1572849, 65537, 1, -1507313, 65537, 1, -1441777, 65537, 1, -1376241, 65537, 1, -1310705, 65537, 1, -1245169, 65537, 1, -1179633, 65537, 1, -1114097, 65537, 1, -1048561, 1, 3, -983025, 1, 3, -917489, 1, 3, -851953, 65537, 1, -786417, 65537, 1, -720881, 65537, 1, -655345, 65537, 1, -589809, 65537, 1, -524273, 65537, 1, -458737, 65537, 1, -393201, 65537, 1, -327665, 65537, 1, -262129, 65537, 1, -196593, 65537, 1, -131057, 65537, 1, -65521, 65537, 1, 15, 1, 3, 65551, 1, 3, 131087, 1, 3, 196623, 65537, 1, 262159, 65537, 1, 327695, 65537, 1, 393231, 65537, 1, 458767, 65537, 1, -1769456, 65537, 1, -1703920, 65537, 1, -1638384, 1, 3, -1572848, 1, 3, -1507312, 1, 3, -1441776, 1, 3, -1376240, 65537, 1, -1310704, 65537, 1, -1245168, 65537, 1, -1179632, 65537, 1, -1114096, 65537, 1, -1048560, 1, 3, -983024, 1, 3, -917488, 1, 3, -851952, 65537, 1, -786416, 65537, 1, -720880, 65537, 1, -655344, 65537, 1, -589808, 1, 3, -524272, 1, 3, -458736, 1, 3, -393200, 1, 3, -327664, 1, 3, -262128, 65537, 1, -196592, 65537, 1, -131056, 65537, 1, -65520, 65537, 1, 16, 1, 3, 65552, 1, 3, 131088, 1, 3, 196624, 65537, 1, 262160, 65537, 1, 327696, 65537, 1, 393232, 65537, 1, 458768, 65537, 1, -1769455, 65537, 1, -1703919, 65537, 1, -1638383, 1, 3, -1572847, 1, 3, -1507311, 1, 3, -1441775, 1, 3, -1376239, 65537, 1, -1310703, 65537, 1, -1245167, 65537, 1, -1179631, 65537, 1, -1114095, 65537, 1, -1048559, 1, 3, -983023, 1, 3, -917487, 1, 3, -851951, 65537, 1, -786415, 65537, 1, -720879, 65537, 1, -655343, 65537, 1, -589807, 1, 3, -524271, 1, 3, -458735, 1, 3, -393199, 1, 3, -327663, 1, 3, -262127, 65537, 1, -196591, 65537, 1, -131055, 65537, 1, -65519, 65537, 1, 17, 1, 3, 65553, 1, 3, 131089, 1, 3, 196625, 65537, 1, 262161, 65537, 1, 327697, 65537, 1, 393233, 65537, 1, 458769, 65537, 1, -1769454, 65537, 1, -1703918, 65537, 1, -1638382, 1, 3, -1572846, 1, 3, -1507310, 1, 3, -1441774, 65537, 1, -1376238, 65537, 1, -1310702, 65537, 1, -1245166, 65537, 1, -1179630, 65537, 1, -1114094, 65537, 1, -1048558, 1, 3, -983022, 1, 3, -917486, 1, 3, -851950, 65537, 1, -786414, 65537, 1, -720878, 65537, 1, -655342, 65537, 1, -589806, 1, 3, -524270, 1, 3, -458734, 1, 3, -393198, 1, 3, -327662, 1, 3, -262126, 65537, 1, -196590, 65537, 1, -131054, 65537, 1, -65518, 65537, 1, 18, 1, 3, 65554, 1, 3, 131090, 1, 3, 196626, 65537, 1, 262162, 65537, 1, 327698, 65537, 1, 393234, 65537, 1, 458770, 65537, 1, -1769453, 65537, 1, -1703917, 65537, 1, -1638381, 1, 3, -1572845, 1, 3, -1507309, 1, 3, -1441773, 65537, 1, -1376237, 65537, 1, -1310701, 65537, 1, -1245165, 65537, 1, -1179629, 65537, 1, -1114093, 65537, 1, -1048557, 1, 3, -983021, 1, 3, -917485, 1, 3, -851949, 65537, 1, -786413, 65537, 1, -720877, 65537, 1, -655341, 65537, 1, -589805, 65537, 1, -524269, 65537, 1, -458733, 65537, 1, -393197, 65537, 1, -327661, 65537, 1, -262125, 65537, 1, -196589, 65537, 1, -131053, 65537, 1, -65517, 65537, 1, 19, 65537, 1, 65555, 65537, 1, 131091, 65537, 1, 196627, 65537, 1, 262163, 65537, 1, 327699, 65537, 1, 393235, 65537, 1, 458771, 65537, 1, -1769452, 65537, 1, -1703916, 65537, 1, -1638380, 1, 3, -1572844, 1, 3, -1507308, 1, 3, -1441772, 1, 3, -1376236, 65537, 1, -1310700, 65537, 1, -1245164, 65537, 1, -1179628, 65537, 1, -1114092, 65537, 1, -1048556, 1, 3, -983020, 1, 3, -917484, 1, 3, -851948, 65537, 1, -786412, 65537, 1, -720876, 65537, 1, -655340, 65537, 1, -589804, 65537, 1, -524268, 65537, 1, -458732, 65537, 1, -393196, 65537, 1, -327660, 65537, 1, -262124, 65537, 1, -196588, 65537, 1, -131052, 65537, 1, -65516, 65537, 1, 20, 65537, 1, 65556, 65537, 1, 131092, 65537, 1, 196628, 65537, 1, 262164, 65537, 1, 327700, 65537, 1, 393236, 65537, 1, 458772, 65537, 1, -1769451, 65537, 1, -1703915, 65537, 1, -1638379, 1, 3, -1572843, 1, 3, -1507307, 1, 3, -1441771, 1, 3, -1376235, 65537, 1, -1310699, 65537, 1, -1245163, 65537, 1, -1179627, 65537, 1, -1114091, 65537, 1, -1048555, 1, 3, -983019, 1, 3, -917483, 1, 3, -851947, 65537, 1, -786411, 65537, 1, -720875, 65537, 1, -655339, 65537, 1, -589803, 1, 3, -524267, 1, 3, -458731, 1, 3, -393195, 1, 3, -327659, 1, 3, -262123, 65537, 1, -196587, 65537, 1, -131051, 65537, 1, -65515, 65537, 1, 21, 65537, 1, 65557, 65537, 1, 131093, 65537, 1, 196629, 65537, 1, 262165, 65537, 1, 327701, 65537, 1, 393237, 65537, 1, 458773, 65537, 1, -1769450, 65537, 1, -1703914, 65537, 1, -1638378, 1, 3, -1572842, 1, 3, -1507306, 1, 3, -1441770, 65537, 1, -1376234, 65537, 1, -1310698, 65537, 1, -1245162, 65537, 1, -1179626, 65537, 1, -1114090, 65537, 1, -1048554, 65537, 1, -983018, 65537, 1, -917482, 65537, 1, -851946, 65537, 1, -786410, 65537, 1, -720874, 65537, 1, -655338, 65537, 1, -589802, 1, 3, -524266, 1, 3, -458730, 1, 3, -393194, 1, 3, -327658, 1, 3, -262122, 65537, 1, -196586, 65537, 1, -131050, 65537, 1, -65514, 65537, 1, 22, 65537, 1, 65558, 65537, 1, 131094, 65537, 1, 196630, 65537, 1, 262166, 65537, 1, 327702, 65537, 1, 393238, 65537, 1, 458774, 65537, 1, -1769449, 65537, 1, -1703913, 65537, 1, -1638377, 1, 3, -1572841, 1, 3, -1507305, 1, 3, -1441769, 65537, 1, -1376233, 65537, 1, -1310697, 65537, 1, -1245161, 65537, 1, -1179625, 65537, 1, -1114089, 65537, 1, -1048553, 65537, 1, -983017, 65537, 1, -917481, 65537, 1, -851945, 65537, 1, -786409, 65537, 1, -720873, 65537, 1, -655337, 65537, 1, -589801, 1, 3, -524265, 1, 3, -458729, 1, 3, -393193, 1, 3, -327657, 1, 3, -262121, 65537, 1, -196585, 65537, 1, -131049, 65537, 1, -65513, 65537, 1, 23, 65537, 1, 65559, 65537, 1, 131095, 65537, 1, 196631, 65537, 1, 262167, 65537, 1, 327703, 65537, 1, 393239, 65537, 1, 458775, 65537, 1, -1769448, 65537, 1, -1703912, 65537, 1, -1638376, 1, 3, -1572840, 1, 3, -1507304, 1, 3, -1441768, 1, 3, -1376232, 1, 3, -1310696, 65537, 1, -1245160, 65537, 1, -1179624, 65537, 1, -1114088, 65537, 1, -1048552, 65537, 1, -983016, 65537, 1, -917480, 65537, 1, -851944, 65537, 1, -786408, 65537, 1, -720872, 65537, 1, -655336, 65537, 1, -589800, 65537, 1, -524264, 65537, 1, -458728, 65537, 1, -393192, 65537, 1, -327656, 65537, 1, -262120, 65537, 1, -196584, 65537, 1, -131048, 65537, 1, -65512, 65537, 1, 24, 65537, 1, 65560, 65537, 1, 131096, 65537, 1, 196632, 65537, 1, 262168, 65537, 1, 327704, 65537, 1, 393240, 65537, 1, 458776, 65537, 1, -1769447, 65537, 1, -1703911, 65537, 1, -1638375, 1, 3, -1572839, 1, 3, -1507303, 1, 3, -1441767, 1, 3, -1376231, 1, 3, -1310695, 1, 3, -1245159, 65537, 1, -1179623, 65537, 1, -1114087, 65537, 1, -1048551, 65537, 1, -983015, 65537, 1, -917479, 65537, 1, -851943, 65537, 1, -786407, 65537, 1, -720871, 65537, 1, -655335, 65537, 1, -589799, 65537, 1, -524263, 65537, 1, -458727, 65537, 1, -393191, 65537, 1, -327655, 65537, 1, -262119, 65537, 1, -196583, 65537, 1, -131047, 65537, 1, -65511, 65537, 1, 25, 65537, 1, 65561, 65537, 1, 131097, 65537, 1, 196633, 65537, 1, 262169, 65537, 1, 327705, 65537, 1, 393241, 65537, 1, 458777, 65537, 1, -1769446, 65537, 1, -1703910, 65537, 1, -1638374, 65537, 1, -1572838, 65537, 1, -1507302, 65537, 1, -1441766, 65537, 1, -1376230, 65537, 1, -1310694, 65537, 1, -1245158, 65537, 1, -1179622, 65537, 1, -1114086, 65537, 1, -1048550, 65537, 1, -983014, 65537, 1, -917478, 65537, 1, -851942, 65537, 1, -786406, 65537, 1, -720870, 65537, 1, -655334, 65537, 1, -589798, 1, 3, -524262, 1, 3, -458726, 1, 3, -393190, 1, 3, -327654, 1, 3, -262118, 65537, 1, -196582, 65537, 1, -131046, 65537, 1, -65510, 65537, 1, 26, 65537, 1, 65562, 65537, 1, 131098, 65537, 1, 196634, 65537, 1, 262170, 65537, 1, 327706, 65537, 1, 393242, 65537, 1, 458778, 65537, 1, -1769445, 65537, 1, -1703909, 65537, 1, -1638373, 65537, 1, -1572837, 65537, 1, -1507301, 65537, 1, -1441765, 65537, 1, -1376229, 65537, 1, -1310693, 65537, 1, -1245157, 65537, 1, -1179621, 65537, 1, -1114085, 65537, 1, -1048549, 65537, 1, -983013, 65537, 1, -917477, 65537, 1, -851941, 65537, 1, -786405, 65537, 1, -720869, 65537, 1, -655333, 65537, 1, -589797, 1, 3, -524261, 1, 3, -458725, 1, 3, -393189, 1, 3, -327653, 65537, 1, -262117, 65537, 1, -196581, 65537, 1, -131045, 65537, 1, -65509, 65537, 1, 131099, 65537, 1, 196635, 65537, 1, 262171, 65537, 1, 327707, 65537, 1, 393243, 65537, 1, 458779, 65537, 1, -1769444, 65537, 1, -1703908, 65537, 1, -1638372, 65537, 1, -1572836, 65537, 1, -1507300, 65537, 1, -1441764, 65537, 1, -1376228, 65537, 1, -1310692, 65537, 1, -1245156, 65537, 1, -1179620, 65537, 1, -1114084, 65537, 1, -1048548, 65537, 1, -983012, 65537, 1, -917476, 65537, 1, -851940, 65537, 1, -786404, 65537, 1, -720868, 65537, 1, -655332, 65537, 1, -589796, 1, 3, -524260, 1, 3, -458724, 1, 3, -393188, 65537, 1, -327652, 65537, 1, -262116, 65537, 1, -196580, 65537, 1, -131044, 65537, 1, -65508, 65537, 1, 131100, 65537, 1, 196636, 65537, 1, 262172, 65537, 1, 327708, 65537, 1, 393244, 65537, 1, 458780, 65537, 1, -1769443, 65537, 1, -1703907, 65537, 1, -1638371, 1, 3, -1572835, 1, 3, -1507299, 1, 3, -1441763, 1, 3, -1376227, 1, 3, -1310691, 1, 3, -1245155, 1, 3, -1179619, 65537, 1, -1114083, 65537, 1, -1048547, 65537, 1, -983011, 65537, 1, -917475, 65537, 1, -851939, 65537, 1, -786403, 65537, 1, -720867, 65537, 1, -655331, 65537, 1, -589795, 65537, 1, -524259, 65537, 1, -458723, 65537, 1, -393187, 65537, 1, -327651, 65537, 1, -262115, 65537, 1, -196579, 65537, 1, -131043, 65537, 1, -65507, 65537, 1, 131101, 65537, 1, 196637, 65537, 1, 262173, 65537, 1, 327709, 65537, 1, 393245, 65537, 1, 458781, 65537, 1, -1769442, 65537, 1, -1703906, 65537, 1, -1638370, 1, 3, -1572834, 1, 3, -1507298, 1, 3, -1441762, 1, 3, -1376226, 1, 3, -1310690, 1, 3, -1245154, 1, 3, -1179618, 65537, 1, -1114082, 65537, 1, -1048546, 65537, 1, -983010, 65537, 1, -917474, 65537, 1, -851938, 65537, 1, -786402, 65537, 1, -720866, 65537, 1, -655330, 65537, 1, -589794, 65537, 1, -524258, 65537, 1, -458722, 65537, 1, -393186, 65537, 1, -327650, 65537, 1, -262114, 65537, 1, -196578, 65537, 1, -131042, 65537, 1, -65506, 65537, 1, 131102, 1, 3, 196638, 65537, 1, 262174, 65537, 1, 327710, 65537, 1, 393246, 65537, 1, 458782, 65537, 1, -1769441, 65537, 1, -1703905, 65537, 1, -1638369, 1, 3, -1572833, 1, 3, -1507297, 1, 3, -1441761, 1, 3, -1376225, 1, 3, -1310689, 1, 3, -1245153, 1, 3, -1179617, 65537, 1, -1114081, 65537, 1, -1048545, 65537, 1, -983009, 65537, 1, -917473, 65537, 1, -851937, 65537, 1, -786401, 65537, 1, -720865, 65537, 1, -655329, 65537, 1, -589793, 65537, 1, -524257, 65537, 1, -458721, 65537, 1, -393185, 65537, 1, -327649, 65537, 1, -262113, 65537, 1, 131103, 1, 3, 196639, 65537, 1, 262175, 65537, 1, 327711, 65537, 1, 393247, 65537, 1, 458783, 65537, 1, -1769440, 65537, 1, -1703904, 65537, 1, -1638368, 65537, 1, -1572832, 1, 3, -1507296, 1, 3, -1441760, 1, 3, -1376224, 1, 3, -1310688, 1, 3, -1245152, 1, 3, -1179616, 65537, 1, -1114080, 65537, 1, -1048544, 65537, 1, -983008, 65537, 1, -917472, 65537, 1, -851936, 65537, 1, -786400, 65537, 1, -720864, 65537, 1, -655328, 65537, 1, -589792, 65537, 1, -524256, 65537, 1, -458720, 65537, 1, -393184, 65537, 1, -327648, 65537, 1, -262112, 65537, 1, 131104, 1, 3, 196640, 65537, 1, 262176, 65537, 1, 327712, 65537, 1, 393248, 65537, 1, 458784, 65537, 1, -1769439, 65537, 1, -1703903, 65537, 1, -1638367, 65537, 1, -1572831, 65537, 1, -1507295, 1, 3, -1441759, 1, 3, -1376223, 1, 3, -1310687, 65537, 1, -1245151, 65537, 1, -1179615, 65537, 1, -1114079, 65537, 1, -1048543, 65537, 1, -983007, 65537, 1, -917471, 65537, 1, -851935, 65537, 1, -786399, 65537, 1, -720863, 65537, 1, -655327, 65537, 1, -589791, 65537, 1, -524255, 65537, 1, -458719, 1, 3, -393183, 1, 3, -327647, 1, 3, -262111, 1, 3, 131105, 1, 3, 196641, 65537, 1, 262177, 65537, 1, 327713, 65537, 1, 393249, 65537, 1, 458785, 65537, 1, -1769438, 65537, 1, -1703902, 65537, 1, -1638366, 65537, 1, -1572830, 65537, 1, -1507294, 1, 3, -1441758, 1, 3, -1376222, 1, 3, -1310686, 65537, 1, -1245150, 65537, 1, -1179614, 65537, 1, -1114078, 65537, 1, -1048542, 65537, 1, -983006, 65537, 1, -917470, 65537, 1, -851934, 65537, 1, -786398, 65537, 1, -720862, 65537, 1, -655326, 65537, 1, -589790, 65537, 1, -524254, 65537, 1, -458718, 1, 3, -393182, 1, 3, -327646, 1, 3, -262110, 1, 3, -65502, 1, 3, 34, 1, 3, 65570, 1, 3, 131106, 1, 3, 196642, 65537, 1, 262178, 65537, 1, 327714, 65537, 1, 393250, 65537, 1, 458786, 65537, 1, -1769437, 65537, 1, -1703901, 65537, 1, -1638365, 65537, 1, -1572829, 65537, 1, -1507293, 65537, 1, -1441757, 1, 3, -1376221, 1, 3, -1310685, 65537, 1, -1245149, 65537, 1, -1179613, 65537, 1, -1114077, 65537, 1, -1048541, 65537, 1, -983005, 65537, 1, -917469, 1, 3, -851933, 1, 3, -786397, 65537, 1, -720861, 65537, 1, -655325, 65537, 1, -589789, 65537, 1, -524253, 65537, 1, -458717, 1, 3, -393181, 1, 3, -327645, 1, 3, -262109, 1, 3, -65501, 1, 3, 35, 1, 3, 65571, 1, 3, 131107, 1, 3, 196643, 65537, 1, 262179, 65537, 1, 327715, 65537, 1, 393251, 65537, 1, 458787, 65537, 1, -1769436, 65537, 1, -1703900, 65537, 1, -1638364, 65537, 1, -1572828, 65537, 1, -1507292, 65537, 1, -1441756, 65537, 1, -1376220, 65537, 1, -1310684, 1, 3, -1245148, 1, 3, -1179612, 65537, 1, -1114076, 65537, 1, -1048540, 65537, 1, -983004, 65537, 1, -917468, 1, 3, -851932, 1, 3, -786396, 65537, 1, -720860, 65537, 1, -655324, 65537, 1, -589788, 65537, 1, -524252, 65537, 1, -458716, 1, 3, -393180, 1, 3, -327644, 1, 3, -262108, 65537, 1, -65500, 65537, 1, 36, 65537, 1, 65572, 65537, 1, 131108, 65537, 1, 196644, 65537, 1, 262180, 65537, 1, 327716, 65537, 1, 393252, 65537, 1, 458788, 65537, 1, -1769435, 65537, 1, -1703899, 65537, 1, -1638363, 65537, 1, -1572827, 65537, 1, -1507291, 65537, 1, -1441755, 65537, 1, -1376219, 65537, 1, -1310683, 1, 3, -1245147, 1, 3, -1179611, 65537, 1, -1114075, 65537, 1, -1048539, 65537, 1, -983003, 65537, 1, -917467, 1, 3, -851931, 1, 3, -786395, 65537, 1, -720859, 65537, 1, -655323, 65537, 1, -589787, 65537, 1, -524251, 65537, 1, -458715, 1, 3, -393179, 1, 3, -327643, 1, 3, -262107, 65537, 1, -196571, 65537, 1, -131035, 65537, 1, -65499, 65537, 1, 37, 65537, 1, 65573, 65537, 1, 131109, 65537, 1, 196645, 65537, 1, 262181, 65537, 1, 327717, 65537, 1, 393253, 65537, 1, 458789, 65537, 1, -1769434, 65537, 1, -1703898, 65537, 1, -1638362, 65537, 1, -1572826, 65537, 1, -1507290, 65537, 1, -1441754, 65537, 1, -1376218, 65537, 1, -1310682, 1, 3, -1245146, 1, 3, -1179610, 65537, 1, -1114074, 65537, 1, -1048538, 65537, 1, -983002, 65537, 1, -917466, 1, 3, -851930, 1, 3, -786394, 65537, 1, -720858, 65537, 1, -655322, 65537, 1, -589786, 65537, 1, -524250, 65537, 1, -458714, 1, 3, -393178, 1, 3, -327642, 1, 3, -262106, 65537, 1, -196570, 65537, 1, -131034, 65537, 1, -65498, 65537, 1, 38, 65537, 1, 65574, 65537, 1, 131110, 65537, 1, 196646, 65537, 1, 262182, 65537, 1, 327718, 65537, 1, 393254, 65537, 1, 458790, 65537, 1, -1769433, 65537, 1, -1703897, 65537, 1, -1638361, 65537, 1, -1572825, 65537, 1, -1507289, 65537, 1, -1441753, 65537, 1, -1376217, 65537, 1, -1310681, 1, 3, -1245145, 1, 3, -1179609, 65537, 1, -1114073, 65537, 1, -1048537, 65537, 1, -983001, 65537, 1, -917465, 1, 3, -851929, 1, 3, -786393, 65537, 1, -720857, 65537, 1, -655321, 65537, 1, -589785, 65537, 1, -524249, 65537, 1, -458713, 65537, 1, -393177, 65537, 1, -327641, 65537, 1, -262105, 65537, 1, -196569, 65537, 1, -131033, 65537, 1, -65497, 65537, 1, 39, 65537, 1, 65575, 65537, 1, 131111, 65537, 1, 196647, 65537, 1, 262183, 65537, 1, 327719, 65537, 1, 393255, 65537, 1, 458791, 65537, 1, -1769432, 65537, 1, -1703896, 65537, 1, -1638360, 65537, 1, -1572824, 65537, 1, -1507288, 65537, 1, -1441752, 65537, 1, -1376216, 65537, 1, -1310680, 65537, 1, -1245144, 65537, 1, -1179608, 65537, 1, -1114072, 65537, 1, -1048536, 65537, 1, -983000, 65537, 1, -917464, 1, 3, -851928, 1, 3, -786392, 65537, 1, -720856, 65537, 1, -655320, 65537, 1, -589784, 65537, 1, -524248, 65537, 1, -458712, 65537, 1, -393176, 65537, 1, -327640, 65537, 1, -262104, 65537, 1, -196568, 65537, 1, -131032, 65537, 1, -65496, 65537, 1, 40, 65537, 1, 65576, 65537, 1, 131112, 65537, 1, 196648, 65537, 1, 262184, 65537, 1, 327720, 65537, 1, 393256, 65537, 1, 458792, 65537, 1, -1769431, 65537, 1, -1703895, 65537, 1, -1638359, 65537, 1, -1572823, 65537, 1, -1507287, 65537, 1, -1441751, 1, 3, -1376215, 1, 3, -1310679, 65537, 1, -1245143, 65537, 1, -1179607, 65537, 1, -1114071, 65537, 1, -1048535, 65537, 1, -982999, 65537, 1, -917463, 1, 3, -851927, 1, 3, -786391, 1, 3, -720855, 1, 3, -655319, 1, 3, -589783, 65537, 1, -524247, 65537, 1, -458711, 65537, 1, -393175, 65537, 1, -327639, 65537, 1, -262103, 65537, 1, -196567, 65537, 1, -131031, 65537, 1, -65495, 65537, 1, 41, 65537, 1, 65577, 65537, 1, 131113, 65537, 1, 196649, 65537, 1, 262185, 65537, 1, 327721, 65537, 1, 393257, 65537, 1, 458793, 1, 3, -1769430, 65537, 1, -1703894, 65537, 1, -1638358, 65537, 1, -1572822, 65537, 1, -1507286, 65537, 1, -1441750, 65537, 1, -1376214, 1, 3, -1310678, 65537, 1, -1245142, 65537, 1, -1179606, 65537, 1, -1114070, 65537, 1, -1048534, 65537, 1, -982998, 65537, 1, -917462, 1, 3, -851926, 1, 3, -786390, 1, 3, -720854, 1, 3, -655318, 1, 3, -589782, 65537, 1, -524246, 65537, 1, -458710, 65537, 1, -393174, 65537, 1, -327638, 65537, 1, -262102, 65537, 1, -196566, 65537, 1, -131030, 65537, 1, -65494, 65537, 1, 42, 65537, 1, 65578, 65537, 1, 131114, 65537, 1, 196650, 65537, 1, 262186, 65537, 1, 327722, 65537, 1, 393258, 65537, 1, 458794, 1, 3, -1769429, 65537, 1, -1703893, 65537, 1, -1638357, 65537, 1, -1572821, 65537, 1, -1507285, 65537, 1, -1441749, 65537, 1, -1376213, 1, 3, -1310677, 65537, 1, -1245141, 65537, 1, -1179605, 65537, 1, -1114069, 65537, 1, -1048533, 65537, 1, -982997, 65537, 1, -917461, 1, 3, -851925, 1, 3, -786389, 1, 3, -720853, 1, 3, -655317, 1, 3, -589781, 65537, 1, -524245, 65537, 1, -458709, 65537, 1, -393173, 65537, 1, -327637, 65537, 1, -262101, 65537, 1, -196565, 65537, 1, -131029, 65537, 1, -65493, 65537, 1, 43, 65537, 1, 65579, 65537, 1, 131115, 65537, 1, 196651, 65537, 1, 262187, 65537, 1, 327723, 1, 3, 393259, 1, 3, 458795, 1, 3, -1769428, 65537, 1, -1703892, 65537, 1, -1638356, 65537, 1, -1572820, 65537, 1, -1507284, 65537, 1, -1441748, 65537, 1, -1376212, 65537, 1, -1310676, 65537, 1, -1245140, 65537, 1, -1179604, 65537, 1, -1114068, 65537, 1, -1048532, 65537, 1, -982996, 65537, 1, -917460, 65537, 1, -851924, 65537, 1, -786388, 65537, 1, -720852, 65537, 1, -655316, 65537, 1, -589780, 65537, 1, -524244, 65537, 1, -458708, 65537, 1, -393172, 65537, 1, -327636, 65537, 1, -262100, 65537, 1, -196564, 65537, 1, -131028, 65537, 1, -65492, 65537, 1, 44, 65537, 1, 65580, 65537, 1, 131116, 65537, 1, 196652, 65537, 1, 262188, 65537, 1, 327724, 1, 3, 393260, 1, 3, 458796, 1, 3, -1769427, 65537, 1, -1703891, 65537, 1, -1638355, 65537, 1, -1572819, 65537, 1, -1507283, 65537, 1, -1441747, 65537, 1, -1376211, 65537, 1, -1310675, 65537, 1, -1245139, 65537, 1, -1179603, 65537, 1, -1114067, 65537, 1, -1048531, 65537, 1, -982995, 65537, 1, -917459, 65537, 1, -851923, 65537, 1, -786387, 65537, 1, -720851, 65537, 1, -655315, 65537, 1, -589779, 65537, 1, -524243, 65537, 1, -458707, 65537, 1, -393171, 65537, 1, -327635, 65537, 1, -262099, 65537, 1, -196563, 65537, 1, -131027, 65537, 1, -65491, 65537, 1, 45, 65537, 1, 65581, 65537, 1, 131117, 65537, 1, 196653, 65537, 1, 262189, 1, 3, 327725, 1, 3, 393261, 1, 3, 458797, 1, 3, -1769426, 65537, 1, -1703890, 65537, 1, -1638354, 1, 3, -1572818, 1, 3, -1507282, 65537, 1, -1441746, 65537, 1, -1376210, 65537, 1, -1310674, 65537, 1, -1245138, 65537, 1, -1179602, 65537, 1, -1114066, 65537, 1, -1048530, 65537, 1, -982994, 65537, 1, -917458, 65537, 1, -851922, 65537, 1, -786386, 65537, 1, -720850, 65537, 1, -655314, 65537, 1, -589778, 65537, 1, -524242, 65537, 1, -458706, 65537, 1, -393170, 65537, 1, -327634, 65537, 1, -262098, 65537, 1, -196562, 65537, 1, -131026, 65537, 1, -65490, 65537, 1, 46, 65537, 1, 65582, 65537, 1, 131118, 65537, 1, 196654, 1, 3, 262190, 1, 3, 327726, 1, 3, 393262, 1, 3, 458798, 1, 3, -1769425, 65537, 1, -1703889, 65537, 1, -1638353, 1, 3, -1572817, 1, 3, -1507281, 1, 3, -1441745, 65537, 1, -1376209, 65537, 1, -1310673, 65537, 1, -1245137, 65537, 1, -1179601, 65537, 1, -1114065, 65537, 1, -1048529, 65537, 1, -982993, 65537, 1, -917457, 65537, 1, -851921, 65537, 1, -786385, 65537, 1, -720849, 65537, 1, -655313, 65537, 1, -589777, 65537, 1, -524241, 65537, 1, -458705, 65537, 1, -393169, 65537, 1, -327633, 65537, 1, -262097, 65537, 1, -196561, 65537, 1, -131025, 65537, 1, -65489, 65537, 1, 47, 65537, 1, 65583, 65537, 1, 131119, 1, 3, 196655, 1, 3, 262191, 1, 3, 327727, 1, 3, 393263, 1, 3, 458799, 1, 3, -1769424, 65537, 1, -1703888, 65537, 1, -1638352, 65537, 1, -1572816, 65537, 1, -1507280, 65537, 1, -1441744, 65537, 1, -1376208, 65537, 1, -1310672, 65537, 1, -1245136, 65537, 1, -1179600, 65537, 1, -1114064, 65537, 1, -1048528, 65537, 1, -982992, 65537, 1, -917456, 65537, 1, -851920, 65537, 1, -786384, 65537, 1, -720848, 65537, 1, -655312, 65537, 1, -589776, 65537, 1, -524240, 65537, 1, -458704, 65537, 1, -393168, 65537, 1, -327632, 65537, 1, -262096, 65537, 1, -196560, 65537, 1, -131024, 65537, 1, -65488, 65537, 1, 48, 65537, 1, 65584, 65537, 1, 131120, 65537, 1, 196656, 65537, 1, 262192, 65537, 1, 327728, 65537, 1, 393264, 65537, 1, 458800, 65537, 1, -1769423, 65537, 1, -1703887, 65537, 1, -1638351, 65537, 1, -1572815, 65537, 1, -1507279, 65537, 1, -1441743, 65537, 1, -1376207, 65537, 1, -1310671, 65537, 1, -1245135, 65537, 1, -1179599, 65537, 1, -1114063, 65537, 1, -1048527, 65537, 1, -982991, 65537, 1, -917455, 65537, 1, -851919, 65537, 1, -786383, 65537, 1, -720847, 65537, 1, -655311, 65537, 1, -589775, 65537, 1, -524239, 65537, 1, -458703, 65537, 1, -393167, 65537, 1, -327631, 65537, 1, -262095, 65537, 1, -196559, 65537, 1, -131023, 65537, 1, -65487, 65537, 1, 49, 65537, 1, 65585, 65537, 1, 131121, 65537, 1, 196657, 65537, 1, 262193, 65537, 1, 327729, 65537, 1, 393265, 65537, 1, 458801, 65537, 1, -1245190, 65537, 1, -1245189, 65537, 1, -1245188, 65537, 1, -1245187, 65537, 1, -1245186, 65537, 1, -1245185, 65537, 1, -1310720, 65537, 1, -196575, 1, 3, -131039, 1, 3, -196574, 1, 3, -131038, 1, 3, -196573, 1, 3, -131037, 1, 3, 30, 1, 3, 65566, 1, 3, 31, 1, 3, 65567, 1, 3, 32, 1, 3, 65568, 1, 3, 33, 1, 3, 65569, 1, 3, -65503, 1, 3, 28, 65537, 1, 27, 65537, 1, 65563, 65537, 1, 65564, 65537, 1, 29, 65537, 1, 65565, 65537, 1, -65505, 65537, 1, -65504, 65537, 1, -131040, 65537, 1, -196576, 65537, 1, -196577, 65537, 1, -131041, 65537, 1, -196572, 65537, 1, -131036, 65537, 1)

[node name="bosters" type="Node" parent="."]

[node name="booster_jump1" parent="bosters" groups=["booster_jump"] instance=ExtResource("4_vq3ud")]
position = Vector2(1188, 180)
scale = Vector2(-1, 1)

[node name="booster_jump2" parent="bosters" groups=["booster_jump"] instance=ExtResource("4_vq3ud")]
position = Vector2(-66, -468)

[node name="key" parent="." instance=ExtResource("5_ms8sv")]
position = Vector2(1649, -252)

[node name="door" parent="." instance=ExtResource("6_3ss6s")]
position = Vector2(-292, -684)

[node name="player_character" parent="." groups=["can_be_hitted", "player"] instance=ExtResource("7_i103g")]
position = Vector2(-197, 72)
collision_mask = 13

[node name="camera" type="Camera2D" parent="player_character"]
position = Vector2(31, -63)
limit_left = -396
limit_top = -972
limit_right = 1800
limit_bottom = 288
editor_draw_limits = true

[node name="background" parent="player_character/camera" instance=ExtResource("8_dnsfp")]

[node name="ui" type="CanvasLayer" parent="player_character/camera"]

[node name="hud" parent="player_character/camera/ui" instance=ExtResource("10_667v8")]

[node name="pause" parent="player_character/camera/ui" instance=ExtResource("9_cqm4d")]

[node name="mkt_character" parent="." groups=["can_be_hitted"] instance=ExtResource("10_13wt7")]
position = Vector2(365, -397)

[node name="MK150_character" parent="." groups=["can_be_hitted"] instance=ExtResource("10_255r6")]
position = Vector2(740, 180)

[node name="mku_character" parent="." groups=["can_be_hitted"] instance=ExtResource("12_3j1l5")]
position = Vector2(13, -470)

[node name="tubes" type="Node" parent="."]

[node name="tube1" parent="tubes" groups=["can_be_hitted"] instance=ExtResource("11_3sw77")]
position = Vector2(990, -432)

[node name="tube2" parent="tubes" groups=["can_be_hitted"] instance=ExtResource("11_3sw77")]
position = Vector2(990, -504)

[node name="tube3" parent="tubes" groups=["can_be_hitted"] instance=ExtResource("11_3sw77")]
position = Vector2(631, -432)

[node name="TileMapFront" type="TileMap" parent="."]
modulate = Color(0, 0.521569, 0.509804, 1)
scale = Vector2(0.75, 0.75)
tile_set = SubResource("TileSet_sq2av")
format = 2
layer_0/tile_data = PackedInt32Array(-327657, 65537, 1, -327658, 65537, 1, -393193, 1, 3, -458729, 1, 3, -393196, 65537, 1, -458732, 65537, 1, -458733, 65537, 1, -458734, 1, 3, -458735, 1, 3, -458736, 1, 3, -393200, 1, 3, -393199, 1, 3, -393198, 1, 3, -393197, 65537, 1, -327664, 65537, 1, -327662, 65537, 1, -327661, 65537, 1, -327660, 65537, 1, -327663, 65537, 1, -327659, 65537, 1, -393195, 1, 3, -458731, 1, 3, -458730, 1, 3, -393194, 1, 3, -720866, 65537, 0, -720880, 65537, 0, -720879, 65537, 0, -720878, 65537, 0, -720877, 65537, 0, -720876, 65537, 0, -720875, 65537, 0, -720874, 65537, 0, -720873, 65537, 0, -720872, 65537, 0, -720871, 65537, 0, -720870, 65537, 0, -720869, 65537, 1, -720868, 65537, 0, -720867, 65537, 0, -655337, 65537, 1, -589801, 65537, 1, -589800, 65537, 1, -655336, 65537, 1, -589806, 65537, 1, -655342, 65537, 1, -655341, 65537, 1, -655340, 65537, 1, -589804, 65537, 1, -589805, 65537, 1, -655344, 65537, 1, -589808, 65537, 1, -655333, 65537, 1, -589797, 65537, 1, -655332, 65537, 1, -589796, 65537, 1, -524272, 1, 3, -524271, 1, 3, -524270, 1, 3, -524269, 65537, 1, -524268, 65537, 1, -524267, 1, 3, -524266, 1, 3, -524265, 1, 3, -524264, 65537, 1, -524263, 65537, 1, -524262, 1, 3, -524261, 1, 3, -524260, 1, 3, -655343, 65537, 1, -589807, 65537, 1, -655339, 65537, 1, -589803, 65537, 1, -655338, 65537, 1, -589802, 65537, 1, -655335, 65537, 1, -589799, 65537, 1, -655334, 65537, 1, -589798, 65537, 1, -655331, 65537, 1, -589795, 65537, 1, -655330, 65537, 1, -589794, 65537, 1, -655329, 65537, 1, -589793, 131073, 1, 327696, 65537, 1, 393232, 65537, 1, 458768, 65537, 1, 327697, 65537, 0, 393233, 65537, 1, 458769, 65537, 1, 327698, 65537, 0, 393234, 65537, 1, 458770, 65537, 1, 327699, 65537, 0, 393235, 65537, 1, 458771, 65537, 1, 327700, 65537, 0, 393236, 65537, 1, 458772, 65537, 1, 327701, 65537, 0, 393237, 65537, 1, 458773, 65537, 1, 327702, 131073, 0, 393238, 131073, 1, 458774, 131073, 1, -720897, 65537, 1, -655361, 65537, 1, -589825, 65537, 1, -524289, 65537, 1, -458753, 65537, 1, -393217, 65537, 1, -327681, 65537, 1, -262145, 65537, 2, -786432, 65537, 1, -720896, 65537, 1, -655360, 65537, 1, -589824, 65537, 1, -524288, 65537, 1, -458752, 65537, 1, -393216, 65537, 1, -327680, 65537, 2, -786431, 65537, 1, -720895, 65537, 1, -655359, 1, 3, -589823, 1, 3, -524287, 1, 3, -458751, 65537, 1, -393215, 65537, 1, -327679, 65537, 2, 327681, 65537, 0, 393217, 65537, 1, 458753, 65537, 1, -786430, 65537, 1, -720894, 65537, 1, -655358, 1, 3, -589822, 1, 3, -524286, 1, 3, -458750, 1, 3, -393214, 65537, 1, -327678, 65537, 1, 327682, 65537, 0, 393218, 65537, 1, 458754, 65537, 1, -786429, 65537, 1, -720893, 65537, 1, -655357, 1, 3, -589821, 1, 3, -524285, 1, 3, -458749, 1, 3, -393213, 1, 3, -327677, 65537, 1, 327683, 65537, 0, 393219, 65537, 1, 458755, 65537, 1, -786428, 65537, 1, -720892, 65537, 1, -655356, 65537, 1, -589820, 65537, 1, -524284, 65537, 1, -458748, 65537, 1, -393212, 65537, 1, -327676, 65537, 1, -786427, 65537, 1, -720891, 65537, 1, -655355, 65537, 1, -589819, 65537, 1, -524283, 65537, 1, -458747, 65537, 1, -393211, 65537, 1, -327675, 65537, 1, -786426, 65537, 1, -720890, 65537, 1, -655354, 65537, 1, -589818, 65537, 1, -524282, 1, 3, -458746, 1, 3, -393210, 1, 3, -327674, 65537, 1, 327686, 65537, 0, 393222, 65537, 1, 458758, 65537, 1, -786425, 131073, 0, -720889, 65537, 1, -655353, 65537, 1, -589817, 65537, 1, -524281, 1, 3, -458745, 1, 3, -393209, 1, 3, -327673, 65537, 1, 327687, 65537, 1, 393223, 65537, 1, 458759, 65537, 1, -720888, 65537, 0, -655352, 65537, 1, -589816, 65537, 1, -524280, 1, 3, -458744, 1, 3, -393208, 1, 3, -327672, 65537, 1, 327688, 65537, 1, 393224, 65537, 1, 458760, 65537, 1, -720887, 65537, 0, -655351, 65537, 1, -589815, 65537, 1, -524279, 65537, 1, -458743, 65537, 1, -393207, 65537, 1, -327671, 65537, 1, 327689, 65537, 1, 393225, 65537, 1, 458761, 65537, 1, -720886, 65537, 0, -655350, 65537, 1, -589814, 65537, 1, -524278, 65537, 1, -458742, 65537, 1, -393206, 65537, 1, -327670, 65537, 1, 327690, 65537, 1, 393226, 65537, 1, 458762, 65537, 1, 327684, 65537, 0, 393220, 65537, 1, 458756, 65537, 1, 327685, 65537, 0, 393221, 65537, 1, 458757, 65537, 1, 327695, 65537, 1, 393231, 65537, 1, 458767, 65537, 1, 327694, 65537, 1, 393230, 65537, 1, 458766, 65537, 1, 327693, 65537, 1, 393229, 65537, 1, 458765, 65537, 1, 327691, 65537, 1, 393227, 65537, 1, 458763, 65537, 1, 327692, 65537, 1, 393228, 65537, 1, 458764, 65537, 1, -1114121, 65537, 1, -1048585, 65537, 1, -983049, 65537, 1, -917513, 65537, 1, -851977, 65537, 1, -786441, 65537, 1, -720905, 65537, 1, -655369, 65537, 1, -589833, 65537, 1, -524297, 65537, 1, -458761, 65537, 1, -393225, 65537, 1, -327689, 65537, 1, -262153, 65537, 1, -196617, 131073, 1, -131081, 131073, 1, -65545, 131073, 1, -9, 131073, 1, 65527, 131073, 1, 131063, 131073, 1, 196599, 65537, 1, 262135, 65537, 1, 327671, 1, 3, 393207, 1, 3, 458743, 1, 3, 524279, 1, 3, -1114120, 65537, 1, -1048584, 65537, 1, -983048, 65537, 1, -917512, 65537, 1, -851976, 65537, 1, -786440, 65537, 1, -720904, 65537, 1, -655368, 65537, 1, -589832, 65537, 1, -524296, 65537, 1, -458760, 65537, 1, -393224, 65537, 1, -327688, 65537, 1, -262152, 65537, 2, 196600, 65537, 0, 262136, 65537, 1, 327672, 1, 3, 393208, 1, 3, 458744, 1, 3, 524280, 1, 3, -1114119, 65537, 1, -1048583, 65537, 1, -983047, 1, 3, -917511, 1, 3, -851975, 1, 3, -786439, 1, 3, -720903, 1, 3, -655367, 1, 3, -589831, 1, 3, -524295, 1, 3, -458759, 1, 3, -393223, 65537, 1, -327687, 65537, 1, -262151, 65537, 2, 196601, 65537, 0, 262137, 65537, 1, 327673, 1, 3, 393209, 1, 3, 458745, 1, 3, 524281, 1, 3, -1114118, 65537, 1, -1048582, 65537, 1, -983046, 1, 3, -917510, 1, 3, -851974, 1, 3, -786438, 1, 3, -720902, 1, 3, -655366, 1, 3, -589830, 1, 3, -524294, 1, 3, -458758, 1, 3, -393222, 65537, 1, -327686, 65537, 1, -262150, 65537, 2, 196602, 65537, 0, 262138, 65537, 1, 327674, 1, 3, 393210, 1, 3, 458746, 1, 3, 524282, 1, 3, -1114117, 65537, 1, -1048581, 65537, 1, -983045, 65537, 1, -917509, 65537, 1, -851973, 65537, 1, -786437, 65537, 1, -720901, 1, 3, -655365, 1, 3, -589829, 1, 3, -524293, 1, 3, -458757, 1, 3, -393221, 65537, 1, -327685, 65537, 1, -262149, 65537, 2, 196603, 65537, 0, 262139, 65537, 1, 327675, 65537, 1, 393211, 65537, 1, 458747, 65537, 1, 524283, 65537, 1, -1114116, 131073, 1, -1048580, 131073, 1, -983044, 131073, 1, -917508, 131073, 1, -851972, 131073, 1, -786436, 65537, 1, -720900, 65537, 1, -655364, 1, 3, -589828, 1, 3, -524292, 1, 3, -458756, 1, 3, -393220, 65537, 1, -327684, 65537, 1, -262148, 65537, 2, 196604, 131073, 0, 262140, 131073, 1, 327676, 131073, 1, 393212, 65537, 1, 458748, 65537, 1, 524284, 65537, 1, -1114123, 65537, 1, -1048587, 65537, 1, -983051, 65537, 1, -917515, 65537, 1, -851979, 65537, 1, -786443, 65537, 1, -720907, 65537, 1, -655371, 65537, 1, -589835, 65537, 1, -524299, 65537, 1, -458763, 65537, 1, -393227, 65537, 1, -327691, 65537, 1, -262155, 65537, 1, -196619, 65537, 1, -131083, 65537, 1, -65547, 65537, 1, -11, 65537, 1, 65525, 65537, 1, 131061, 65537, 1, 196597, 65537, 1, 262133, 65537, 1, 327669, 1, 3, 393205, 1, 3, 458741, 1, 3, 524277, 1, 3, -1114122, 65537, 1, -1048586, 65537, 1, -983050, 65537, 1, -917514, 65537, 1, -851978, 65537, 1, -786442, 65537, 1, -720906, 65537, 1, -655370, 65537, 1, -589834, 65537, 1, -524298, 65537, 1, -458762, 65537, 1, -393226, 65537, 1, -327690, 65537, 1, -262154, 65537, 1, -196618, 65537, 1, -131082, 65537, 1, -65546, 65537, 1, -10, 65537, 1, 65526, 65537, 1, 131062, 65537, 1, 196598, 65537, 1, 262134, 65537, 1, 327670, 1, 3, 393206, 1, 3, 458742, 1, 3, 524278, 1, 3, 327707, 1, 0, 393243, 1, 1, 458779, 1, 1, 327708, 65537, 0, 393244, 65537, 1, 458780, 65537, 1, 327709, 65537, 0, 393245, 65537, 1, 458781, 65537, 1, 327710, 65537, 0, 393246, 65537, 1, 458782, 65537, 1, 327711, 65537, 0, 393247, 65537, 1, 458783, 65537, 1, 327712, 65537, 0, 393248, 65537, 1, 458784, 65537, 1, 327713, 131073, 0, 393249, 131073, 1, 458785, 131073, 1, 65574, 1, 1, 131110, 1, 1, 196646, 1, 1, 262182, 1, 1, 327718, 1, 1, 393254, 1, 1, 458790, 1, 1, 65575, 65537, 1, 131111, 65537, 1, 196647, 65537, 1, 262183, 65537, 1, 327719, 65537, 1, 393255, 65537, 1, 458791, 65537, 1, 65576, 1, 3, 131112, 1, 3, 196648, 1, 3, 262184, 1, 3, 327720, 1, 3, 393256, 1, 3, 458792, 1, 3, 65577, 1, 3, 131113, 1, 3, 196649, 1, 3, 262185, 1, 3, 327721, 1, 3, 393257, 1, 3, 458793, 1, 3, 65578, 1, 3, 131114, 1, 3, 196650, 1, 3, 262186, 1, 3, 327722, 1, 3, 393258, 1, 3, 458794, 1, 3, 65579, 1, 3, 131115, 1, 3, 196651, 1, 3, 262187, 1, 3, 327723, 1, 3, 393259, 1, 3, 458795, 1, 3, 65580, 1, 3, 131116, 1, 3, 196652, 1, 3, 262188, 1, 3, 327724, 1, 3, 393260, 1, 3, 458796, 1, 3, 65581, 1, 3, 131117, 1, 3, 196653, 1, 3, 262189, 1, 3, 327725, 1, 3, 393261, 1, 3, 458797, 1, 3, 65582, 1, 3, 131118, 1, 3, 196654, 1, 3, 262190, 1, 3, 327726, 1, 3, 393262, 1, 3, 458798, 1, 3, 65583, 1, 3, 131119, 1, 3, 196655, 1, 3, 262191, 1, 3, 327727, 1, 3, 393263, 1, 3, 458799, 1, 3, 65584, 65537, 1, 131120, 65537, 1, 196656, 65537, 1, 262192, 65537, 1, 327728, 65537, 1, 393264, 65537, 1, 458800, 65537, 1, 65585, 65537, 1, 131121, 65537, 1, 196657, 65537, 1, 262193, 65537, 1, 327729, 65537, 1, 393265, 65537, 1, 458801, 65537, 1, -196570, 1, 0, -131034, 1, 1, -196569, 65537, 0, -131033, 65537, 1, -196568, 65537, 0, -131032, 65537, 1, -262103, 1, 0, -196567, 65537, 1, -131031, 1, 3, -327638, 1, 0, -262102, 65537, 1, -196566, 1, 3, -131030, 1, 3, -393173, 1, 0, -327637, 65537, 1, -262101, 1, 3, -196565, 1, 3, -131029, 1, 3, -393172, 65537, 0, -327636, 65537, 1, -262100, 1, 3, -196564, 1, 3, -131028, 1, 3, -393171, 65537, 0, -327635, 65537, 1, -262099, 1, 3, -196563, 1, 3, -131027, 1, 3, -393170, 65537, 0, -327634, 65537, 1, -262098, 1, 3, -196562, 1, 3, -131026, 1, 3, -524241, 1, 1, -458705, 1, 1, -393169, 65537, 1, -327633, 65537, 1, -262097, 1, 3, -196561, 1, 3, -131025, 1, 3, -524240, 65537, 1, -458704, 65537, 1, -393168, 65537, 1, -327632, 65537, 1, -262096, 65537, 1, -196560, 65537, 1, -131024, 65537, 1, -524239, 65537, 1, -458703, 65537, 1, -393167, 65537, 1, -327631, 65537, 1, -262095, 65537, 1, -196559, 65537, 1, -131023, 65537, 1, -1179603, 65537, 1, -1114067, 65537, 2, -1048531, 1, 3, -1179602, 65537, 1, -1114066, 65537, 2, -1048530, 1, 3, -1179601, 65537, 1, -1114065, 65537, 1, -1048529, 1, 1, -982993, 1, 1, -917457, 1, 1, -851921, 1, 1, -786385, 1, 1, -720849, 1, 1, -655313, 1, 1, -589777, 1, 1, -1179600, 65537, 1, -1114064, 65537, 1, -1048528, 65537, 1, -982992, 65537, 1, -917456, 65537, 1, -851920, 65537, 1, -786384, 65537, 1, -720848, 65537, 1, -655312, 65537, 1, -589776, 65537, 1, -1179599, 65537, 1, -1114063, 65537, 1, -1048527, 65537, 1, -982991, 65537, 1, -917455, 65537, 1, -851919, 65537, 1, -786383, 65537, 1, -720847, 65537, 1, -655311, 65537, 1, -589775, 65537, 1, -1179611, 65537, 1, -1114075, 65537, 2, -1048539, 1, 3, -1179610, 65537, 1, -1114074, 65537, 2, -1048538, 1, 3, -1179609, 65537, 1, -1114073, 65537, 2, -1048537, 1, 3, -1179608, 65537, 1, -1114072, 65537, 2, -1048536, 1, 3, -1179607, 65537, 1, -1114071, 65537, 1, -1048535, 1, 3, -1179606, 65537, 1, -1114070, 65537, 2, -1048534, 1, 3, -1179605, 65537, 1, -1114069, 65537, 2, -1048533, 1, 3, -1179604, 65537, 1, -1114068, 65537, 2, -1048532, 1, 3, -1703947, 65537, 1, -1638411, 65537, 1, -1572875, 65537, 1, -1507339, 65537, 1, -1441803, 65537, 1, -1376267, 65537, 1, -1703946, 65537, 1, -1638410, 65537, 1, -1572874, 65537, 1, -1507338, 65537, 1, -1441802, 65537, 1, -1376266, 65537, 1, -1703945, 65537, 1, -1638409, 65537, 1, -1572873, 65537, 1, -1507337, 131073, 1, -1441801, 131073, 1, -1376265, 131073, 1, -1703944, 65537, 1, -1638408, 65537, 1, -1572872, 65537, 2, -1703943, 65537, 1, -1638407, 65537, 1, -1572871, 65537, 2, -1703942, 65537, 1, -1638406, 65537, 1, -1572870, 65537, 2, -1703941, 65537, 1, -1638405, 65537, 1, -1572869, 65537, 2, -1703940, 65537, 1, -1638404, 65537, 1, -1572868, 65537, 2, -1703939, 65537, 1, -1638403, 65537, 1, -1572867, 65537, 2, -1703938, 65537, 1, -1638402, 65537, 1, -1572866, 65537, 2, -1703937, 65537, 1, -1638401, 65537, 1, -1572865, 65537, 2, -1769472, 65537, 1, -1703936, 65537, 1, -1638400, 65537, 2, -1769471, 65537, 1, -1703935, 65537, 1, -1638399, 65537, 2, -1572863, 1, 3, -1769470, 65537, 1, -1703934, 65537, 1, -1638398, 65537, 1, -1572862, 1, 2, -1507326, 1, 3, -1769469, 65537, 1, -1703933, 65537, 1, -1638397, 65537, 1, -1572861, 65537, 1, -1507325, 1, 2, -1441789, 1, 3, -1769468, 65537, 1, -1703932, 65537, 1, -1638396, 65537, 1, -1572860, 65537, 1, -1507324, 65537, 1, -1441788, 1, 2, -1769467, 65537, 1, -1703931, 65537, 1, -1638395, 1, 3, -1572859, 65537, 1, -1507323, 65537, 1, -1441787, 65537, 1, -1769466, 65537, 1, -1703930, 65537, 1, -1638394, 1, 3, -1572858, 1, 3, -1507322, 65537, 1, -1441786, 65537, 1, -1769465, 65537, 1, -1703929, 65537, 1, -1638393, 1, 3, -1572857, 1, 3, -1507321, 1, 3, -1441785, 65537, 1, -1769464, 65537, 1, -1703928, 65537, 1, -1638392, 1, 3, -1572856, 1, 3, -1507320, 1, 3, -1441784, 65537, 1, -1769463, 65537, 1, -1703927, 65537, 1, -1638391, 1, 3, -1572855, 1, 3, -1507319, 1, 3, -1441783, 65537, 1, -1769462, 65537, 1, -1703926, 65537, 1, -1441782, 65537, 1, -1769461, 65537, 1, -1703925, 65537, 1, -1638389, 1, 3, -1572853, 1, 3, -1507317, 1, 3, -1441781, 65537, 1, -1769460, 65537, 1, -1703924, 65537, 1, -1638388, 65537, 1, -1572852, 65537, 1, -1507316, 65537, 1, -1441780, 65537, 1, -1769459, 65537, 1, -1703923, 65537, 1, -1638387, 65537, 1, -1572851, 65537, 1, -1507315, 65537, 1, -1441779, 65537, 1, -1769458, 65537, 1, -1703922, 65537, 1, -1638386, 65537, 1, -1572850, 65537, 1, -1507314, 65537, 1, -1441778, 65537, 1, -1769457, 65537, 1, -1703921, 65537, 1, -1638385, 65537, 1, -1572849, 65537, 1, -1507313, 65537, 1, -1441777, 65537, 1, -1769456, 65537, 1, -1703920, 65537, 1, -1638384, 65537, 1, -1572848, 65537, 1, -1507312, 65537, 1, -1441776, 65537, 1, -1769455, 65537, 1, -1703919, 65537, 1, -1638383, 1, 3, -1572847, 1, 3, -1507311, 1, 3, -1441775, 65537, 1, -1769454, 65537, 1, -1703918, 65537, 1, -1638382, 1, 3, -1572846, 1, 3, -1507310, 1, 3, -1441774, 65537, 1, -1769453, 65537, 1, -1703917, 65537, 1, -1638381, 1, 3, -1572845, 1, 3, -1507309, 1, 3, -1441773, 65537, 1, -1769452, 65537, 1, -1703916, 65537, 1, -1638380, 1, 3, -1572844, 1, 3, -1507308, 1, 3, -1441772, 65537, 1, -1769451, 65537, 1, -1703915, 65537, 1, -1638379, 1, 3, -1572843, 1, 3, -1507307, 1, 3, -1441771, 65537, 1, -1769450, 65537, 1, -1703914, 65537, 1, -1638378, 1, 3, -1572842, 1, 3, -1507306, 1, 3, -1441770, 65537, 1, -1769449, 65537, 1, -1703913, 65537, 1, -1638377, 1, 3, -1572841, 1, 3, -1507305, 1, 3, -1441769, 65537, 1, -1769448, 65537, 1, -1703912, 65537, 1, -1638376, 65537, 1, -1572840, 65537, 1, -1507304, 65537, 1, -1441768, 65537, 1, -1769447, 65537, 1, -1703911, 65537, 1, -1638375, 65537, 1, -1572839, 65537, 1, -1507303, 65537, 1, -1441767, 65537, 1, -1769446, 65537, 1, -1703910, 65537, 1, -1638374, 65537, 1, -1572838, 65537, 1, -1507302, 65537, 1, -1441766, 65537, 1, -1769445, 65537, 1, -1703909, 65537, 1, -1638373, 65537, 1, -1572837, 65537, 1, -1507301, 65537, 1, -1441765, 65537, 1, -1769444, 65537, 1, -1703908, 65537, 1, -1638372, 65537, 1, -1572836, 65537, 1, -1507300, 65537, 1, -1441764, 65537, 1, -1769443, 65537, 1, -1703907, 65537, 1, -1638371, 1, 3, -1572835, 1, 3, -1507299, 1, 3, -1441763, 1, 3, -1769442, 65537, 1, -1703906, 65537, 1, -1638370, 1, 3, -1572834, 1, 3, -1507298, 1, 3, -1441762, 1, 3, -1769441, 65537, 1, -1703905, 65537, 1, -1638369, 1, 3, -1572833, 1, 3, -1507297, 1, 3, -1441761, 1, 3, -1769440, 65537, 1, -1703904, 65537, 1, -1638368, 1, 3, -1572832, 1, 3, -1507296, 1, 3, -1441760, 1, 3, -1769439, 65537, 1, -1703903, 65537, 1, -1638367, 1, 3, -1572831, 1, 3, -1507295, 1, 3, -1441759, 1, 3, -1769438, 65537, 1, -1703902, 65537, 1, -1638366, 1, 3, -1572830, 1, 3, -1507294, 1, 3, -1441758, 1, 3, -1769437, 65537, 1, -1703901, 65537, 1, -1638365, 1, 3, -1572829, 1, 3, -1507293, 1, 3, -1441757, 1, 3, -1769436, 65537, 1, -1703900, 65537, 1, -1638364, 65537, 1, -1507292, 65537, 1, -1441756, 65537, 1, -1769435, 65537, 1, -1703899, 65537, 1, -1638363, 65537, 1, -1507291, 65537, 1, -1441755, 65537, 1, -1769434, 65537, 1, -1703898, 65537, 1, -1638362, 65537, 1, -1572826, 65537, 1, -1507290, 65537, 1, -1441754, 65537, 1, -1769433, 65537, 1, -1703897, 65537, 1, -1638361, 65537, 1, -1572825, 65537, 1, -1507289, 65537, 1, -1441753, 65537, 1, -1769432, 65537, 1, -1703896, 65537, 1, -1638360, 65537, 1, -1572824, 65537, 1, -1507288, 65537, 1, -1441752, 65537, 1, -1769431, 65537, 1, -1703895, 65537, 1, -1638359, 1, 3, -1572823, 1, 3, -1507287, 1, 3, -1441751, 1, 3, -1769430, 65537, 1, -1703894, 65537, 1, -1638358, 1, 3, -1572822, 1, 3, -1507286, 1, 3, -1441750, 1, 3, -1769429, 65537, 1, -1703893, 65537, 1, -1638357, 1, 3, -1572821, 1, 3, -1507285, 1, 3, -1441749, 1, 3, -1769428, 65537, 1, -1703892, 65537, 1, -1638356, 1, 3, -1572820, 1, 3, -1507284, 1, 3, -1441748, 1, 3, -1769427, 65537, 1, -1703891, 65537, 1, -1638355, 1, 3, -1572819, 1, 3, -1507283, 1, 3, -1441747, 1, 3, -1769426, 65537, 1, -1703890, 65537, 1, -1638354, 1, 3, -1572818, 1, 3, -1441746, 1, 3, -1769425, 65537, 1, -1703889, 65537, 1, -1638353, 1, 3, -1572817, 1, 3, -1507281, 1, 3, -1441745, 1, 3, -1769424, 65537, 1, -1703888, 65537, 1, -1638352, 65537, 1, -1572816, 65537, 1, -1507280, 65537, 1, -1441744, 65537, 1, -1769423, 65537, 1, -1703887, 65537, 1, -1638351, 65537, 1, -1572815, 65537, 1, -1507279, 65537, 1, -1441743, 65537, 1, -1310731, 65537, 1, -1310730, 65537, 1, -1310729, 131073, 1, -1572864, 1, 3, -1507327, 1, 3, -1441790, 1, 3, -1376253, 1, 3, -1376252, 1, 3, -1376251, 1, 2, -1376250, 65537, 1, -1376248, 65537, 1, -1376247, 65537, 1, -1376246, 65537, 1, -1376245, 65537, 1, -1376244, 65537, 1, -1376243, 65537, 1, -1376242, 65537, 1, -1376241, 65537, 1, -1376240, 65537, 1, -1376239, 65537, 1, -1376238, 65537, 1, -1376237, 65537, 1, -1376236, 65537, 1, -1376235, 65537, 1, -1376234, 65537, 1, -1376233, 65537, 1, -1376232, 65537, 1, -1376231, 65537, 1, -1376230, 65537, 1, -1376229, 65537, 1, -1376228, 65537, 1, -1376227, 1, 3, -1376226, 1, 3, -1376225, 1, 3, -1376224, 1, 3, -1376223, 1, 3, -1376222, 1, 3, -1376221, 1, 3, -1376220, 65537, 1, -1376219, 65537, 1, -1376218, 65537, 1, -1376217, 65537, 1, -1376216, 65537, 1, -1376215, 1, 3, -1376214, 1, 3, -1376213, 1, 3, -1376212, 1, 3, -1376211, 1, 3, -1376210, 1, 3, -1376209, 1, 3, -1376208, 65537, 1, -1376207, 65537, 1, -1245195, 65537, 1, -1245194, 65537, 1, -1245193, 131073, 1, -1179659, 65537, 1, -1179658, 65537, 1, -1179657, 65537, 1, -65498, 1, 1, 38, 1, 1, -65497, 65537, 1, 39, 65537, 1, -65496, 1, 3, 40, 1, 3, -65495, 1, 3, 41, 1, 3, -65494, 1, 3, 42, 1, 3, -65493, 1, 3, 43, 1, 3, -65492, 1, 3, 44, 1, 3, -65491, 1, 3, 45, 1, 3, -65490, 1, 3, 46, 1, 3, -65489, 1, 3, 47, 1, 3, -65488, 65537, 1, 48, 65537, 1, -65487, 65537, 1, 49, 65537, 1, -262142, 1, 2, -262134, 65537, 2, -524258, 65537, 1, -524259, 65537, 1, -262123, 65537, 2, -262128, 65537, 2, -262141, 65537, 2, -262140, 65537, 2, -262139, 65537, 2, -262138, 65537, 2, -262137, 65537, 2, -262136, 65537, 2, -262135, 65537, 2, -262133, 65537, 2, -262132, 65537, 2, -262131, 65537, 2, -262130, 65537, 2, -262129, 65537, 2, -262127, 65537, 2, -262126, 65537, 2, -262125, 65537, 2, -262124, 65537, 2, -655349, 65537, 1, -589813, 65537, 1, -524277, 1, 3, -458741, 1, 3, -393205, 1, 3, -327669, 65537, 1, -655348, 65537, 1, -589812, 65537, 1, -524276, 1, 3, -458740, 1, 3, -393204, 1, 3, -327668, 65537, 1, -655347, 65537, 1, -589811, 65537, 1, -524275, 1, 3, -458739, 1, 3, -393203, 1, 3, -327667, 65537, 1, -655346, 65537, 1, -589810, 65537, 1, -524274, 65537, 1, -458738, 65537, 1, -393202, 65537, 1, -327666, 65537, 1, -655345, 65537, 1, -589809, 65537, 1, -524273, 65537, 1, -458737, 65537, 1, -393201, 65537, 1, -327665, 65537, 1, -720885, 65537, 0, -720884, 65537, 0, -720883, 65537, 0, -720882, 65537, 0, -720881, 65537, 0, -720899, 65537, 1, -720898, 65537, 1, -262147, 65537, 2, -262146, 65537, 2, -655363, 65537, 1, -589827, 65537, 1, -524291, 65537, 1, -458755, 65537, 1, -393219, 65537, 1, -327683, 65537, 1, -655362, 65537, 1, -589826, 65537, 1, -524290, 65537, 1, -458754, 65537, 1, -393218, 65537, 1, -327682, 65537, 1, -262121, 65537, 2, -262122, 65537, 2, -458725, 1, 3, -393189, 65537, 1, -458724, 65537, 1, -327653, 65537, 1, -262117, 65537, 2, -393188, 65537, 1, -327652, 65537, 1, -262116, 131073, 2, -458723, 65537, 1, -393187, 65537, 1, -327651, 131073, 2, -458722, 65537, 1, -393186, 131073, 2, -458721, 131073, 2, -458728, 65537, 1, -393192, 65537, 1, -327656, 65537, 1, -262120, 65537, 2, -458727, 65537, 1, -393191, 65537, 1, -327655, 65537, 1, -262119, 65537, 2, -458726, 1, 3, -393190, 1, 3, -327654, 65537, 1, -262118, 65537, 2, -1376249, 65537, 1, -1310683, 65537, 1, -1310682, 65537, 1, -1245146, 65537, 1, -1245145, 65537, 1, -1245136, 65537, 1, -1245135, 65537, 1, -1310672, 65537, 1, -1310673, 65537, 1, -1310674, 65537, 1, -1310675, 65537, 1, -1310676, 65537, 1, -1245140, 65537, 1, -1245141, 65537, 1, -1245142, 65537, 1, -1245143, 65537, 1, -1245144, 65537, 1, -1245147, 65537, 1, -1310681, 65537, 1, -1310680, 65537, 1, -1310679, 65537, 1, -1310678, 65537, 1, -1310677, 65537, 1, -1245138, 65537, 1, -1245139, 65537, 1, -1245137, 65537, 1, -1310671, 65537, 1, -1310716, 1, 3, -1310715, 1, 3, -1048549, 65537, 1, -1048548, 131073, 2, -1048547, 1, 3, -1048546, 1, 3, -1048545, 1, 3, -1048544, 1, 3, -1048543, 1, 3, -1048542, 1, 3, -1048541, 1, 3, -1048540, 1, 3, -1114085, 65537, 1, -1114084, 65537, 1, -1114083, 65537, 2, -1114082, 65537, 2, -1114081, 65537, 2, -1114080, 65537, 2, -1114079, 65537, 2, -1114078, 65537, 2, -1114077, 65537, 2, -1114076, 65537, 2, -1179623, 1, 2, -1179622, 65537, 1, -1245161, 1, 2, -1245160, 65537, 2, -1310699, 65537, 2, -1310698, 65537, 2, -1310714, 1, 2, -1310700, 65537, 2, -1310701, 65537, 2, -1310702, 65537, 2, -1310703, 65537, 2, -1310704, 65537, 2, -1310705, 65537, 2, -1310706, 65537, 2, -1310707, 65537, 2, -1310708, 65537, 2, -1310709, 65537, 2, -1310710, 65537, 2, -1310711, 65537, 2, -1310712, 65537, 2, -1310713, 65537, 2, -1310697, 65537, 1, -1310696, 65537, 1, -1310695, 65537, 1, -1245159, 65537, 1, -1245158, 65537, 1, -1310694, 65537, 1, -1245157, 65537, 1, -1179621, 65537, 1, -1310693, 65537, 1, -1310692, 65537, 1, -1245156, 65537, 1, -1179620, 65537, 1, -1310691, 65537, 1, -1245155, 65537, 1, -1179619, 65537, 1, -1310690, 65537, 1, -1245154, 65537, 1, -1179618, 65537, 1, -1310689, 65537, 1, -1245153, 65537, 1, -1179617, 65537, 1, -1310688, 65537, 1, -1245152, 65537, 1, -1179616, 65537, 1, -1310687, 65537, 1, -1245151, 65537, 1, -1179615, 65537, 1, -1310686, 65537, 1, -1245150, 65537, 1, -1179614, 65537, 1, -1310685, 65537, 1, -1245149, 65537, 1, -1179613, 65537, 1, -1310684, 65537, 1, -1245148, 65537, 1, -1179612, 65537, 1, -1245163, 1, 3, -1245162, 1, 3, -1179626, 1, 3, -1179625, 1, 3, -1179624, 1, 3, -1114088, 1, 3, -1114087, 1, 3, -1114086, 1, 1, -1048550, 1, 2, -1245179, 1, 3, -1245178, 1, 3, -1245172, 1, 3, -1245171, 1, 3, -1245170, 1, 3, -1245177, 1, 3, -1245176, 1, 3, -1245175, 1, 3, -1245174, 1, 3, -1245173, 1, 3, -1245169, 1, 3, -1245168, 1, 3, -1245167, 1, 3, -1245166, 1, 3, -1245165, 1, 3, -1245164, 1, 3, -1507282, 1, 3, -1572828, 65537, 1, -1572827, 65537, 1, -982995, 1, 3, -982994, 1, 3, -917458, 1, 3, -851962, 131073, 0, -851963, 65537, 0, -851964, 65537, 0, -851965, 65537, 0, -851966, 65537, 0, -851967, 65537, 0, -851968, 65537, 0, -786433, 65537, 0, -786434, 65537, 0, -786435, 65537, 0, -1179656, 65537, 0, -1179655, 65537, 0, -1179654, 65537, 0, -1179653, 65537, 0, -1179652, 131073, 0, -1507318, 1, 3, -1572854, 1, 3, -1638390, 1, 3, -720864, 65537, 0, -655328, 65537, 2, -720863, 65537, 0, -655327, 65537, 2, -720862, 65537, 0, -655326, 65537, 2, -720861, 65537, 0, -655325, 65537, 2, -720860, 65537, 0, -655324, 65537, 2, -720859, 65537, 0, -655323, 65537, 2, -720858, 131073, 0, -655322, 131073, 2, -524257, 131073, 1, -720865, 65537, 0, 327680, 65537, 0, 393215, 65537, 0, 393214, 65537, 0, 393213, 65537, 0, 524285, 65537, 1, 458749, 65537, 1, 458750, 65537, 1, 458751, 65537, 1, 393216, 65537, 1, 458752, 65537, 1, 524287, 65537, 1, 524286, 65537, 1, 262151, 1, 0, 262152, 65537, 0, 262153, 65537, 0, 262154, 65537, 0, 262155, 65537, 0, 262156, 65537, 0, 262157, 65537, 0, 262158, 65537, 0, 262159, 65537, 0, 262160, 131073, 0)

[node name="WorldEnvironment" type="WorldEnvironment" parent="."]
environment = SubResource("Environment_lu1vb")

[connection signal="area_exited" from="playground_area" to="playground_area" method="_on_area_exited"]
[connection signal="body_entered" from="playground_area" to="playground_area" method="_on_body_entered"]
[connection signal="body_exited" from="playground_area" to="playground_area" method="_on_body_exited"]
