[gd_scene load_steps=4 format=2]

[ext_resource path="res://heroenemys/drag1.png" type="Texture" id=1]
[ext_resource path="res://Pig.gd" type="Script" id=2]

[sub_resource type="RectangleShape2D" id=1]
extents = Vector2( 29, 30 )

[node name="Pig" type="RigidBody2D" groups=["Pigs"]]
contacts_reported = 1
script = ExtResource( 2 )

[node name="Node2D" type="Node2D" parent="."]

[node name="CollisionShape2D" type="CollisionShape2D" parent="."]
position = Vector2( 0, -1 )
shape = SubResource( 1 )

[node name="Sprite" type="Sprite" parent="."]
scale = Vector2( 0.212, 0.208 )
texture = ExtResource( 1 )

[connection signal="body_entered" from="." to="." method="_on_Pig_body_entered"]
