[gd_scene load_steps=2 format=3 uid="uid://drplolkkb47va"]

[ext_resource type="Script" path="res://Scenes/pipe_spawner.gd" id="1_adnj2"]

[node name="PipeSpawner" type="Node"]
script = ExtResource("1_adnj2")

[node name="SpawnTimer" type="Timer" parent="."]
